(kicad_pcb (version 20171130) (host pcbnew 5.1.9-73d0e3b20d~88~ubuntu20.04.1)

  (general
    (thickness 1.6)
    (drawings 26)
    (tracks 218)
    (zones 0)
    (modules 21)
    (nets 24)
  )

  (page A4)
  (title_block
    (title "SN76489 + Audio Amp for MatrixPortal M4")
    (date 2020-12-22)
    (rev A)
    (company "Ricardo Quesada")
  )

  (layers
    (0 F.Cu signal)
    (31 B.Cu signal)
    (32 B.Adhes user)
    (33 F.Adhes user)
    (34 B.Paste user)
    (35 F.Paste user)
    (36 B.SilkS user)
    (37 F.SilkS user)
    (38 B.Mask user)
    (39 F.Mask user)
    (40 Dwgs.User user)
    (41 Cmts.User user)
    (42 Eco1.User user)
    (43 Eco2.User user)
    (44 Edge.Cuts user)
    (45 Margin user)
    (46 B.CrtYd user)
    (47 F.CrtYd user)
    (48 B.Fab user)
    (49 F.Fab user)
  )

  (setup
    (last_trace_width 0.25)
    (trace_clearance 0.2)
    (zone_clearance 0.508)
    (zone_45_only no)
    (trace_min 0.2)
    (via_size 0.8)
    (via_drill 0.4)
    (via_min_size 0.4)
    (via_min_drill 0.3)
    (uvia_size 0.3)
    (uvia_drill 0.1)
    (uvias_allowed no)
    (uvia_min_size 0.2)
    (uvia_min_drill 0.1)
    (edge_width 0.05)
    (segment_width 0.2)
    (pcb_text_width 0.3)
    (pcb_text_size 1.5 1.5)
    (mod_edge_width 0.12)
    (mod_text_size 1 1)
    (mod_text_width 0.15)
    (pad_size 1.524 1.524)
    (pad_drill 0.762)
    (pad_to_mask_clearance 0)
    (aux_axis_origin 60.981 116.9542)
    (grid_origin 62.2256 116.4716)
    (visible_elements 7FFFFFFF)
    (pcbplotparams
      (layerselection 0x010f0_ffffffff)
      (usegerberextensions false)
      (usegerberattributes true)
      (usegerberadvancedattributes true)
      (creategerberjobfile true)
      (excludeedgelayer true)
      (linewidth 0.100000)
      (plotframeref false)
      (viasonmask false)
      (mode 1)
      (useauxorigin false)
      (hpglpennumber 1)
      (hpglpenspeed 20)
      (hpglpendiameter 15.000000)
      (psnegative false)
      (psa4output false)
      (plotreference true)
      (plotvalue false)
      (plotinvisibletext false)
      (padsonsilk true)
      (subtractmaskfromsilk false)
      (outputformat 1)
      (mirror false)
      (drillshape 0)
      (scaleselection 1)
      (outputdirectory "gerber_jlcpcb_rev_a/"))
  )

  (net 0 "")
  (net 1 GND)
  (net 2 MP_A4)
  (net 3 595_RCLK)
  (net 4 595_SER)
  (net 5 595_SRCLK)
  (net 6 +5V)
  (net 7 D0)
  (net 8 D7)
  (net 9 D6)
  (net 10 D5)
  (net 11 D4)
  (net 12 D3)
  (net 13 D2)
  (net 14 D1)
  (net 15 SN_OUT)
  (net 16 SN_CLK)
  (net 17 "Net-(C5-Pad2)")
  (net 18 "Net-(C6-Pad1)")
  (net 19 "Net-(C7-Pad1)")
  (net 20 PAM_OUT+)
  (net 21 PAM_OUT-)
  (net 22 PAM_IN+)
  (net 23 "Net-(C5-Pad1)")

  (net_class Default "This is the default net class."
    (clearance 0.2)
    (trace_width 0.25)
    (via_dia 0.8)
    (via_drill 0.4)
    (uvia_dia 0.3)
    (uvia_drill 0.1)
    (add_net 595_RCLK)
    (add_net 595_SER)
    (add_net 595_SRCLK)
    (add_net D0)
    (add_net D1)
    (add_net D2)
    (add_net D3)
    (add_net D4)
    (add_net D5)
    (add_net D6)
    (add_net D7)
    (add_net GND)
    (add_net MP_3V3)
    (add_net MP_A4)
    (add_net MP_RX)
    (add_net MP_TX)
    (add_net "Net-(C5-Pad1)")
    (add_net "Net-(C5-Pad2)")
    (add_net "Net-(C6-Pad1)")
    (add_net "Net-(C7-Pad1)")
    (add_net "Net-(U1-Pad9)")
    (add_net "Net-(U2-Pad4)")
    (add_net "Net-(U2-Pad9)")
    (add_net "Net-(U3-Pad2)")
    (add_net "Net-(X1-Pad1)")
    (add_net PAM_IN+)
    (add_net PAM_OUT+)
    (add_net PAM_OUT-)
    (add_net SN_CLK)
    (add_net SN_OUT)
  )

  (net_class Power ""
    (clearance 0.25)
    (trace_width 0.35)
    (via_dia 0.8)
    (via_drill 0.4)
    (uvia_dia 0.3)
    (uvia_drill 0.1)
    (add_net +5V)
  )

  (module Connector_PinHeader_2.54mm:PinHeader_1x03_P2.54mm_Horizontal (layer F.Cu) (tedit 59FED5CB) (tstamp 601AAF6F)
    (at 68.6518 112.255 180)
    (descr "Through hole angled pin header, 1x03, 2.54mm pitch, 6mm pin length, single row")
    (tags "Through hole angled pin header THT 1x03 2.54mm single row")
    (path /60218836)
    (fp_text reference J3 (at 2.7178 -0.0002 90) (layer F.SilkS)
      (effects (font (size 1 1) (thickness 0.15)))
    )
    (fp_text value Conn_01x03_Male (at 4.385 7.35) (layer F.Fab)
      (effects (font (size 1 1) (thickness 0.15)))
    )
    (fp_line (start 10.55 -1.8) (end -1.8 -1.8) (layer F.CrtYd) (width 0.05))
    (fp_line (start 10.55 6.85) (end 10.55 -1.8) (layer F.CrtYd) (width 0.05))
    (fp_line (start -1.8 6.85) (end 10.55 6.85) (layer F.CrtYd) (width 0.05))
    (fp_line (start -1.8 -1.8) (end -1.8 6.85) (layer F.CrtYd) (width 0.05))
    (fp_line (start -1.27 -1.27) (end 0 -1.27) (layer F.SilkS) (width 0.12))
    (fp_line (start -1.27 0) (end -1.27 -1.27) (layer F.SilkS) (width 0.12))
    (fp_line (start 1.042929 5.46) (end 1.44 5.46) (layer F.SilkS) (width 0.12))
    (fp_line (start 1.042929 4.7) (end 1.44 4.7) (layer F.SilkS) (width 0.12))
    (fp_line (start 10.1 5.46) (end 4.1 5.46) (layer F.SilkS) (width 0.12))
    (fp_line (start 10.1 4.7) (end 10.1 5.46) (layer F.SilkS) (width 0.12))
    (fp_line (start 4.1 4.7) (end 10.1 4.7) (layer F.SilkS) (width 0.12))
    (fp_line (start 1.44 3.81) (end 4.1 3.81) (layer F.SilkS) (width 0.12))
    (fp_line (start 1.042929 2.92) (end 1.44 2.92) (layer F.SilkS) (width 0.12))
    (fp_line (start 1.042929 2.16) (end 1.44 2.16) (layer F.SilkS) (width 0.12))
    (fp_line (start 10.1 2.92) (end 4.1 2.92) (layer F.SilkS) (width 0.12))
    (fp_line (start 10.1 2.16) (end 10.1 2.92) (layer F.SilkS) (width 0.12))
    (fp_line (start 4.1 2.16) (end 10.1 2.16) (layer F.SilkS) (width 0.12))
    (fp_line (start 1.44 1.27) (end 4.1 1.27) (layer F.SilkS) (width 0.12))
    (fp_line (start 1.11 0.38) (end 1.44 0.38) (layer F.SilkS) (width 0.12))
    (fp_line (start 1.11 -0.38) (end 1.44 -0.38) (layer F.SilkS) (width 0.12))
    (fp_line (start 4.1 0.28) (end 10.1 0.28) (layer F.SilkS) (width 0.12))
    (fp_line (start 4.1 0.16) (end 10.1 0.16) (layer F.SilkS) (width 0.12))
    (fp_line (start 4.1 0.04) (end 10.1 0.04) (layer F.SilkS) (width 0.12))
    (fp_line (start 4.1 -0.08) (end 10.1 -0.08) (layer F.SilkS) (width 0.12))
    (fp_line (start 4.1 -0.2) (end 10.1 -0.2) (layer F.SilkS) (width 0.12))
    (fp_line (start 4.1 -0.32) (end 10.1 -0.32) (layer F.SilkS) (width 0.12))
    (fp_line (start 10.1 0.38) (end 4.1 0.38) (layer F.SilkS) (width 0.12))
    (fp_line (start 10.1 -0.38) (end 10.1 0.38) (layer F.SilkS) (width 0.12))
    (fp_line (start 4.1 -0.38) (end 10.1 -0.38) (layer F.SilkS) (width 0.12))
    (fp_line (start 4.1 -1.33) (end 1.44 -1.33) (layer F.SilkS) (width 0.12))
    (fp_line (start 4.1 6.41) (end 4.1 -1.33) (layer F.SilkS) (width 0.12))
    (fp_line (start 1.44 6.41) (end 4.1 6.41) (layer F.SilkS) (width 0.12))
    (fp_line (start 1.44 -1.33) (end 1.44 6.41) (layer F.SilkS) (width 0.12))
    (fp_line (start 4.04 5.4) (end 10.04 5.4) (layer F.Fab) (width 0.1))
    (fp_line (start 10.04 4.76) (end 10.04 5.4) (layer F.Fab) (width 0.1))
    (fp_line (start 4.04 4.76) (end 10.04 4.76) (layer F.Fab) (width 0.1))
    (fp_line (start -0.32 5.4) (end 1.5 5.4) (layer F.Fab) (width 0.1))
    (fp_line (start -0.32 4.76) (end -0.32 5.4) (layer F.Fab) (width 0.1))
    (fp_line (start -0.32 4.76) (end 1.5 4.76) (layer F.Fab) (width 0.1))
    (fp_line (start 4.04 2.86) (end 10.04 2.86) (layer F.Fab) (width 0.1))
    (fp_line (start 10.04 2.22) (end 10.04 2.86) (layer F.Fab) (width 0.1))
    (fp_line (start 4.04 2.22) (end 10.04 2.22) (layer F.Fab) (width 0.1))
    (fp_line (start -0.32 2.86) (end 1.5 2.86) (layer F.Fab) (width 0.1))
    (fp_line (start -0.32 2.22) (end -0.32 2.86) (layer F.Fab) (width 0.1))
    (fp_line (start -0.32 2.22) (end 1.5 2.22) (layer F.Fab) (width 0.1))
    (fp_line (start 4.04 0.32) (end 10.04 0.32) (layer F.Fab) (width 0.1))
    (fp_line (start 10.04 -0.32) (end 10.04 0.32) (layer F.Fab) (width 0.1))
    (fp_line (start 4.04 -0.32) (end 10.04 -0.32) (layer F.Fab) (width 0.1))
    (fp_line (start -0.32 0.32) (end 1.5 0.32) (layer F.Fab) (width 0.1))
    (fp_line (start -0.32 -0.32) (end -0.32 0.32) (layer F.Fab) (width 0.1))
    (fp_line (start -0.32 -0.32) (end 1.5 -0.32) (layer F.Fab) (width 0.1))
    (fp_line (start 1.5 -0.635) (end 2.135 -1.27) (layer F.Fab) (width 0.1))
    (fp_line (start 1.5 6.35) (end 1.5 -0.635) (layer F.Fab) (width 0.1))
    (fp_line (start 4.04 6.35) (end 1.5 6.35) (layer F.Fab) (width 0.1))
    (fp_line (start 4.04 -1.27) (end 4.04 6.35) (layer F.Fab) (width 0.1))
    (fp_line (start 2.135 -1.27) (end 4.04 -1.27) (layer F.Fab) (width 0.1))
    (fp_text user %R (at 2.77 2.54 90) (layer F.Fab)
      (effects (font (size 1 1) (thickness 0.15)))
    )
    (pad 3 thru_hole oval (at 0 5.08 180) (size 1.7 1.7) (drill 1) (layers *.Cu *.Mask)
      (net 22 PAM_IN+))
    (pad 2 thru_hole oval (at 0 2.54 180) (size 1.7 1.7) (drill 1) (layers *.Cu *.Mask)
      (net 6 +5V))
    (pad 1 thru_hole rect (at 0 0 180) (size 1.7 1.7) (drill 1) (layers *.Cu *.Mask)
      (net 1 GND))
    (model ${KISYS3DMOD}/Connector_PinHeader_2.54mm.3dshapes/PinHeader_1x03_P2.54mm_Horizontal.wrl
      (at (xyz 0 0 0))
      (scale (xyz 1 1 1))
      (rotate (xyz 0 0 0))
    )
  )

  (module Potentiometer_SMD:Potentiometer_Bourns_3314J_Vertical (layer F.Cu) (tedit 5A81E1D7) (tstamp 6005229C)
    (at 81.428 95.4404)
    (descr "Potentiometer, vertical, Bourns 3314J, http://www.bourns.com/docs/Product-Datasheets/3314.pdf")
    (tags "Potentiometer vertical Bourns 3314J")
    (path /60073645)
    (attr smd)
    (fp_text reference RV1 (at -3.0988 0 90) (layer F.SilkS)
      (effects (font (size 1 1) (thickness 0.15)))
    )
    (fp_text value R_POT_TRIM_US (at 3.937 0.889 90) (layer F.Fab)
      (effects (font (size 1 1) (thickness 0.15)))
    )
    (fp_circle (center 0 0) (end 1 0) (layer F.Fab) (width 0.1))
    (fp_line (start -2.25 -2.25) (end -2.25 2.25) (layer F.Fab) (width 0.1))
    (fp_line (start -2.25 2.25) (end 2.25 2.25) (layer F.Fab) (width 0.1))
    (fp_line (start 2.25 2.25) (end 2.25 -2.25) (layer F.Fab) (width 0.1))
    (fp_line (start 2.25 -2.25) (end -2.25 -2.25) (layer F.Fab) (width 0.1))
    (fp_line (start 0 0.99) (end 0.001 -0.989) (layer F.Fab) (width 0.1))
    (fp_line (start 0 0.99) (end 0.001 -0.989) (layer F.Fab) (width 0.1))
    (fp_line (start 2.04 -2.37) (end 2.37 -2.37) (layer F.SilkS) (width 0.12))
    (fp_line (start -2.37 -2.37) (end -2.039 -2.37) (layer F.SilkS) (width 0.12))
    (fp_line (start -0.259 -2.37) (end 0.26 -2.37) (layer F.SilkS) (width 0.12))
    (fp_line (start -2.37 2.37) (end -1.24 2.37) (layer F.SilkS) (width 0.12))
    (fp_line (start 1.24 2.37) (end 2.37 2.37) (layer F.SilkS) (width 0.12))
    (fp_line (start -2.37 -2.37) (end -2.37 2.37) (layer F.SilkS) (width 0.12))
    (fp_line (start 2.37 -2.37) (end 2.37 2.37) (layer F.SilkS) (width 0.12))
    (fp_line (start -2.5 -3.25) (end -2.5 3.25) (layer F.CrtYd) (width 0.05))
    (fp_line (start -2.5 3.25) (end 2.5 3.25) (layer F.CrtYd) (width 0.05))
    (fp_line (start 2.5 3.25) (end 2.5 -3.25) (layer F.CrtYd) (width 0.05))
    (fp_line (start 2.5 -3.25) (end -2.5 -3.25) (layer F.CrtYd) (width 0.05))
    (fp_text user %R (at 0 -1.7) (layer F.Fab)
      (effects (font (size 0.63 0.63) (thickness 0.15)))
    )
    (pad 3 smd rect (at -1.15 -2) (size 1.3 2) (layers F.Cu F.Paste F.Mask)
      (net 1 GND))
    (pad 2 smd rect (at 0 2) (size 2 2) (layers F.Cu F.Paste F.Mask)
      (net 23 "Net-(C5-Pad1)"))
    (pad 1 smd rect (at 1.15 -2) (size 1.3 2) (layers F.Cu F.Paste F.Mask)
      (net 15 SN_OUT))
    (model ${KISYS3DMOD}/Potentiometer_SMD.3dshapes/Potentiometer_Bourns_3314J_Vertical.wrl
      (at (xyz 0 0 0))
      (scale (xyz 1 1 1))
      (rotate (xyz 0 0 0))
    )
  )

  (module Connectors:SCREWTERMINAL-3.5MM-2 (layer F.Cu) (tedit 200000) (tstamp 5FE27406)
    (at 65.1466 76.8476 270)
    (descr "SCREW TERMINAL  3.5MM PITCH - 2 PIN PTH")
    (tags "SCREW TERMINAL  3.5MM PITCH - 2 PIN PTH")
    (path /60317449)
    (attr virtual)
    (fp_text reference J2 (at 0 -3.937 270) (layer F.SilkS)
      (effects (font (size 0.6096 0.6096) (thickness 0.127)))
    )
    (fp_text value Screw_Terminal_01x02 (at 0 4.191 90) (layer F.Fab)
      (effects (font (size 0.6096 0.6096) (thickness 0.127)))
    )
    (fp_circle (center 1.99898 -2.99974) (end 1.99898 -3.28168) (layer Dwgs.User) (width 0.127))
    (fp_line (start 5.74802 -2.14884) (end 5.24764 -2.14884) (layer Dwgs.User) (width 0.2032))
    (fp_line (start 5.74802 -3.1496) (end 5.74802 -2.14884) (layer Dwgs.User) (width 0.2032))
    (fp_line (start 5.24764 -3.1496) (end 5.74802 -3.1496) (layer Dwgs.User) (width 0.2032))
    (fp_line (start -2.2479 2.3495) (end -1.74752 2.3495) (layer Dwgs.User) (width 0.2032))
    (fp_line (start -2.2479 1.34874) (end -2.2479 2.3495) (layer Dwgs.User) (width 0.2032))
    (fp_line (start -1.74752 1.34874) (end -2.2479 1.34874) (layer Dwgs.User) (width 0.2032))
    (fp_line (start 5.24764 2.79908) (end -1.74752 2.79908) (layer F.SilkS) (width 0.2032))
    (fp_line (start -1.74752 2.79908) (end -1.74752 -3.39852) (layer F.SilkS) (width 0.2032))
    (fp_line (start -1.74752 3.59918) (end -1.74752 2.79908) (layer F.SilkS) (width 0.2032))
    (fp_line (start 5.24764 3.59918) (end -1.74752 3.59918) (layer F.SilkS) (width 0.2032))
    (fp_line (start 5.24764 2.79908) (end 5.24764 3.59918) (layer F.SilkS) (width 0.2032))
    (fp_line (start 5.24764 -3.39852) (end 5.24764 2.79908) (layer F.SilkS) (width 0.2032))
    (fp_line (start -1.74752 -3.39852) (end 5.24764 -3.39852) (layer F.SilkS) (width 0.2032))
    (pad 2 thru_hole circle (at 3.49758 0 270) (size 2.032 2.032) (drill 1.19888) (layers *.Cu *.Mask)
      (net 19 "Net-(C7-Pad1)") (solder_mask_margin 0.1016))
    (pad 1 thru_hole rect (at 0 0 270) (size 2.032 2.032) (drill 1.19888) (layers *.Cu *.Mask)
      (net 18 "Net-(C6-Pad1)") (solder_mask_margin 0.1016))
  )

  (module Capacitor_SMD:C_0805_2012Metric (layer F.Cu) (tedit 5F68FEEE) (tstamp 5FE26D2C)
    (at 118.979 83.6802)
    (descr "Capacitor SMD 0805 (2012 Metric), square (rectangular) end terminal, IPC_7351 nominal, (Body size source: IPC-SM-782 page 76, https://www.pcb-3d.com/wordpress/wp-content/uploads/ipc-sm-782a_amendment_1_and_2.pdf, https://docs.google.com/spreadsheets/d/1BsfQQcO9C6DZCsRaXUlFlo91Tg2WpOkGARC1WS5S8t0/edit?usp=sharing), generated with kicad-footprint-generator")
    (tags capacitor)
    (path /602D090C)
    (attr smd)
    (fp_text reference C3 (at 0 -1.68) (layer F.SilkS)
      (effects (font (size 1 1) (thickness 0.15)))
    )
    (fp_text value 0.1uF (at 0 1.68) (layer F.Fab)
      (effects (font (size 1 1) (thickness 0.15)))
    )
    (fp_line (start 1.7 0.98) (end -1.7 0.98) (layer F.CrtYd) (width 0.05))
    (fp_line (start 1.7 -0.98) (end 1.7 0.98) (layer F.CrtYd) (width 0.05))
    (fp_line (start -1.7 -0.98) (end 1.7 -0.98) (layer F.CrtYd) (width 0.05))
    (fp_line (start -1.7 0.98) (end -1.7 -0.98) (layer F.CrtYd) (width 0.05))
    (fp_line (start -0.261252 0.735) (end 0.261252 0.735) (layer F.SilkS) (width 0.12))
    (fp_line (start -0.261252 -0.735) (end 0.261252 -0.735) (layer F.SilkS) (width 0.12))
    (fp_line (start 1 0.625) (end -1 0.625) (layer F.Fab) (width 0.1))
    (fp_line (start 1 -0.625) (end 1 0.625) (layer F.Fab) (width 0.1))
    (fp_line (start -1 -0.625) (end 1 -0.625) (layer F.Fab) (width 0.1))
    (fp_line (start -1 0.625) (end -1 -0.625) (layer F.Fab) (width 0.1))
    (fp_text user %R (at 0 0) (layer F.Fab)
      (effects (font (size 0.5 0.5) (thickness 0.08)))
    )
    (pad 2 smd roundrect (at 0.95 0) (size 1 1.45) (layers F.Cu F.Paste F.Mask) (roundrect_rratio 0.25)
      (net 6 +5V))
    (pad 1 smd roundrect (at -0.95 0) (size 1 1.45) (layers F.Cu F.Paste F.Mask) (roundrect_rratio 0.25)
      (net 1 GND))
    (model ${KISYS3DMOD}/Capacitor_SMD.3dshapes/C_0805_2012Metric.wrl
      (at (xyz 0 0 0))
      (scale (xyz 1 1 1))
      (rotate (xyz 0 0 0))
    )
  )

  (module Oscillator:Oscillator_DIP-14 (layer F.Cu) (tedit 58CD3344) (tstamp 5FDD4EF7)
    (at 112.441 88.6078 270)
    (descr "Oscillator, DIP14, http://cdn-reichelt.de/documents/datenblatt/B400/OSZI.pdf")
    (tags oscillator)
    (path /5FDAF0AE)
    (fp_text reference X1 (at 7.62 -11.26 90) (layer F.SilkS)
      (effects (font (size 1 1) (thickness 0.15)))
    )
    (fp_text value 3.579545Mhz (at 7.62 3.74 90) (layer F.Fab)
      (effects (font (size 1 1) (thickness 0.15)))
    )
    (fp_line (start -2.73 2.54) (end -2.73 -9.51) (layer F.Fab) (width 0.1))
    (fp_line (start -2.08 -10.16) (end 17.32 -10.16) (layer F.Fab) (width 0.1))
    (fp_line (start 17.97 -9.51) (end 17.97 1.89) (layer F.Fab) (width 0.1))
    (fp_line (start -2.73 2.54) (end 17.32 2.54) (layer F.Fab) (width 0.1))
    (fp_line (start -2.83 2.64) (end 17.32 2.64) (layer F.SilkS) (width 0.12))
    (fp_line (start 18.07 1.89) (end 18.07 -9.51) (layer F.SilkS) (width 0.12))
    (fp_line (start 17.32 -10.26) (end -2.08 -10.26) (layer F.SilkS) (width 0.12))
    (fp_line (start -2.83 -9.51) (end -2.83 2.64) (layer F.SilkS) (width 0.12))
    (fp_line (start -1.73 1.54) (end 16.62 1.54) (layer F.Fab) (width 0.1))
    (fp_line (start -1.73 1.54) (end -1.73 -8.81) (layer F.Fab) (width 0.1))
    (fp_line (start -1.38 -9.16) (end 16.62 -9.16) (layer F.Fab) (width 0.1))
    (fp_line (start 16.97 1.19) (end 16.97 -8.81) (layer F.Fab) (width 0.1))
    (fp_line (start -2.98 2.79) (end 18.22 2.79) (layer F.CrtYd) (width 0.05))
    (fp_line (start -2.98 -10.41) (end -2.98 2.79) (layer F.CrtYd) (width 0.05))
    (fp_line (start 18.22 -10.41) (end -2.98 -10.41) (layer F.CrtYd) (width 0.05))
    (fp_line (start 18.22 2.79) (end 18.22 -10.41) (layer F.CrtYd) (width 0.05))
    (fp_arc (start -2.08 -9.51) (end -2.73 -9.51) (angle 90) (layer F.Fab) (width 0.1))
    (fp_arc (start 17.32 -9.51) (end 17.32 -10.16) (angle 90) (layer F.Fab) (width 0.1))
    (fp_arc (start 17.32 1.89) (end 17.97 1.89) (angle 90) (layer F.Fab) (width 0.1))
    (fp_arc (start -2.08 -9.51) (end -2.83 -9.51) (angle 90) (layer F.SilkS) (width 0.12))
    (fp_arc (start 17.32 -9.51) (end 17.32 -10.26) (angle 90) (layer F.SilkS) (width 0.12))
    (fp_arc (start 17.32 1.89) (end 18.07 1.89) (angle 90) (layer F.SilkS) (width 0.12))
    (fp_arc (start -1.38 -8.81) (end -1.73 -8.81) (angle 90) (layer F.Fab) (width 0.1))
    (fp_arc (start 16.62 -8.81) (end 16.62 -9.16) (angle 90) (layer F.Fab) (width 0.1))
    (fp_arc (start 16.62 1.19) (end 16.97 1.19) (angle 90) (layer F.Fab) (width 0.1))
    (fp_text user %R (at 7.62 -3.81 90) (layer F.Fab)
      (effects (font (size 1 1) (thickness 0.15)))
    )
    (pad 7 thru_hole circle (at 15.24 0 270) (size 1.6 1.6) (drill 0.8) (layers *.Cu *.Mask)
      (net 1 GND))
    (pad 8 thru_hole circle (at 15.24 -7.62 270) (size 1.6 1.6) (drill 0.8) (layers *.Cu *.Mask)
      (net 16 SN_CLK))
    (pad 14 thru_hole circle (at 0 -7.62 270) (size 1.6 1.6) (drill 0.8) (layers *.Cu *.Mask)
      (net 6 +5V))
    (pad 1 thru_hole rect (at 0 0 270) (size 1.6 1.6) (drill 0.8) (layers *.Cu *.Mask))
    (model ${KISYS3DMOD}/Oscillator.3dshapes/Oscillator_DIP-14.wrl
      (at (xyz 0 0 0))
      (scale (xyz 1 1 1))
      (rotate (xyz 0 0 0))
    )
  )

  (module Capacitor_SMD:C_0805_2012Metric (layer F.Cu) (tedit 5F68FEEE) (tstamp 5FE22B05)
    (at 68.6264 101.435 90)
    (descr "Capacitor SMD 0805 (2012 Metric), square (rectangular) end terminal, IPC_7351 nominal, (Body size source: IPC-SM-782 page 76, https://www.pcb-3d.com/wordpress/wp-content/uploads/ipc-sm-782a_amendment_1_and_2.pdf, https://docs.google.com/spreadsheets/d/1BsfQQcO9C6DZCsRaXUlFlo91Tg2WpOkGARC1WS5S8t0/edit?usp=sharing), generated with kicad-footprint-generator")
    (tags capacitor)
    (path /6023847C)
    (attr smd)
    (fp_text reference C1 (at 0 -1.68 90) (layer F.SilkS)
      (effects (font (size 1 1) (thickness 0.15)))
    )
    (fp_text value 10uF (at 0 1.68 90) (layer F.Fab)
      (effects (font (size 1 1) (thickness 0.15)))
    )
    (fp_line (start 1.7 0.98) (end -1.7 0.98) (layer F.CrtYd) (width 0.05))
    (fp_line (start 1.7 -0.98) (end 1.7 0.98) (layer F.CrtYd) (width 0.05))
    (fp_line (start -1.7 -0.98) (end 1.7 -0.98) (layer F.CrtYd) (width 0.05))
    (fp_line (start -1.7 0.98) (end -1.7 -0.98) (layer F.CrtYd) (width 0.05))
    (fp_line (start -0.261252 0.735) (end 0.261252 0.735) (layer F.SilkS) (width 0.12))
    (fp_line (start -0.261252 -0.735) (end 0.261252 -0.735) (layer F.SilkS) (width 0.12))
    (fp_line (start 1 0.625) (end -1 0.625) (layer F.Fab) (width 0.1))
    (fp_line (start 1 -0.625) (end 1 0.625) (layer F.Fab) (width 0.1))
    (fp_line (start -1 -0.625) (end 1 -0.625) (layer F.Fab) (width 0.1))
    (fp_line (start -1 0.625) (end -1 -0.625) (layer F.Fab) (width 0.1))
    (fp_text user %R (at 0 0 90) (layer F.Fab)
      (effects (font (size 0.5 0.5) (thickness 0.08)))
    )
    (pad 2 smd roundrect (at 0.95 0 90) (size 1 1.45) (layers F.Cu F.Paste F.Mask) (roundrect_rratio 0.25)
      (net 6 +5V))
    (pad 1 smd roundrect (at -0.95 0 90) (size 1 1.45) (layers F.Cu F.Paste F.Mask) (roundrect_rratio 0.25)
      (net 1 GND))
    (model ${KISYS3DMOD}/Capacitor_SMD.3dshapes/C_0805_2012Metric.wrl
      (at (xyz 0 0 0))
      (scale (xyz 1 1 1))
      (rotate (xyz 0 0 0))
    )
  )

  (module Package_SO:SOIC-16_3.9x9.9mm_P1.27mm (layer F.Cu) (tedit 5D9F72B1) (tstamp 5FDD7ADE)
    (at 99.0556 95.9738 90)
    (descr "SOIC, 16 Pin (JEDEC MS-012AC, https://www.analog.com/media/en/package-pcb-resources/package/pkg_pdf/soic_narrow-r/r_16.pdf), generated with kicad-footprint-generator ipc_gullwing_generator.py")
    (tags "SOIC SO")
    (path /5FCF98EA)
    (attr smd)
    (fp_text reference U1 (at 0 -5.9 90) (layer F.SilkS)
      (effects (font (size 1 1) (thickness 0.15)))
    )
    (fp_text value 74HC595 (at 0 5.9 90) (layer F.Fab)
      (effects (font (size 1 1) (thickness 0.15)))
    )
    (fp_line (start 3.7 -5.2) (end -3.7 -5.2) (layer F.CrtYd) (width 0.05))
    (fp_line (start 3.7 5.2) (end 3.7 -5.2) (layer F.CrtYd) (width 0.05))
    (fp_line (start -3.7 5.2) (end 3.7 5.2) (layer F.CrtYd) (width 0.05))
    (fp_line (start -3.7 -5.2) (end -3.7 5.2) (layer F.CrtYd) (width 0.05))
    (fp_line (start -1.95 -3.975) (end -0.975 -4.95) (layer F.Fab) (width 0.1))
    (fp_line (start -1.95 4.95) (end -1.95 -3.975) (layer F.Fab) (width 0.1))
    (fp_line (start 1.95 4.95) (end -1.95 4.95) (layer F.Fab) (width 0.1))
    (fp_line (start 1.95 -4.95) (end 1.95 4.95) (layer F.Fab) (width 0.1))
    (fp_line (start -0.975 -4.95) (end 1.95 -4.95) (layer F.Fab) (width 0.1))
    (fp_line (start 0 -5.06) (end -3.45 -5.06) (layer F.SilkS) (width 0.12))
    (fp_line (start 0 -5.06) (end 1.95 -5.06) (layer F.SilkS) (width 0.12))
    (fp_line (start 0 5.06) (end -1.95 5.06) (layer F.SilkS) (width 0.12))
    (fp_line (start 0 5.06) (end 1.95 5.06) (layer F.SilkS) (width 0.12))
    (fp_text user %R (at 0 0 90) (layer F.Fab)
      (effects (font (size 0.98 0.98) (thickness 0.15)))
    )
    (pad 16 smd roundrect (at 2.475 -4.445 90) (size 1.95 0.6) (layers F.Cu F.Paste F.Mask) (roundrect_rratio 0.25)
      (net 6 +5V))
    (pad 15 smd roundrect (at 2.475 -3.175 90) (size 1.95 0.6) (layers F.Cu F.Paste F.Mask) (roundrect_rratio 0.25)
      (net 7 D0))
    (pad 14 smd roundrect (at 2.475 -1.905 90) (size 1.95 0.6) (layers F.Cu F.Paste F.Mask) (roundrect_rratio 0.25)
      (net 4 595_SER))
    (pad 13 smd roundrect (at 2.475 -0.635 90) (size 1.95 0.6) (layers F.Cu F.Paste F.Mask) (roundrect_rratio 0.25)
      (net 1 GND))
    (pad 12 smd roundrect (at 2.475 0.635 90) (size 1.95 0.6) (layers F.Cu F.Paste F.Mask) (roundrect_rratio 0.25)
      (net 3 595_RCLK))
    (pad 11 smd roundrect (at 2.475 1.905 90) (size 1.95 0.6) (layers F.Cu F.Paste F.Mask) (roundrect_rratio 0.25)
      (net 5 595_SRCLK))
    (pad 10 smd roundrect (at 2.475 3.175 90) (size 1.95 0.6) (layers F.Cu F.Paste F.Mask) (roundrect_rratio 0.25)
      (net 6 +5V))
    (pad 9 smd roundrect (at 2.475 4.445 90) (size 1.95 0.6) (layers F.Cu F.Paste F.Mask) (roundrect_rratio 0.25))
    (pad 8 smd roundrect (at -2.475 4.445 90) (size 1.95 0.6) (layers F.Cu F.Paste F.Mask) (roundrect_rratio 0.25)
      (net 1 GND))
    (pad 7 smd roundrect (at -2.475 3.175 90) (size 1.95 0.6) (layers F.Cu F.Paste F.Mask) (roundrect_rratio 0.25)
      (net 8 D7))
    (pad 6 smd roundrect (at -2.475 1.905 90) (size 1.95 0.6) (layers F.Cu F.Paste F.Mask) (roundrect_rratio 0.25)
      (net 9 D6))
    (pad 5 smd roundrect (at -2.475 0.635 90) (size 1.95 0.6) (layers F.Cu F.Paste F.Mask) (roundrect_rratio 0.25)
      (net 10 D5))
    (pad 4 smd roundrect (at -2.475 -0.635 90) (size 1.95 0.6) (layers F.Cu F.Paste F.Mask) (roundrect_rratio 0.25)
      (net 11 D4))
    (pad 3 smd roundrect (at -2.475 -1.905 90) (size 1.95 0.6) (layers F.Cu F.Paste F.Mask) (roundrect_rratio 0.25)
      (net 12 D3))
    (pad 2 smd roundrect (at -2.475 -3.175 90) (size 1.95 0.6) (layers F.Cu F.Paste F.Mask) (roundrect_rratio 0.25)
      (net 13 D2))
    (pad 1 smd roundrect (at -2.475 -4.445 90) (size 1.95 0.6) (layers F.Cu F.Paste F.Mask) (roundrect_rratio 0.25)
      (net 14 D1))
    (model ${KISYS3DMOD}/Package_SO.3dshapes/SOIC-16_3.9x9.9mm_P1.27mm.wrl
      (at (xyz 0 0 0))
      (scale (xyz 1 1 1))
      (rotate (xyz 0 0 0))
    )
  )

  (module Package_SO:SOP-8_3.9x4.9mm_P1.27mm (layer F.Cu) (tedit 5D9F72B1) (tstamp 5FE2437F)
    (at 73.7826 95.2626 90)
    (descr "SOP, 8 Pin (http://www.macronix.com/Lists/Datasheet/Attachments/7534/MX25R3235F,%20Wide%20Range,%2032Mb,%20v1.6.pdf#page=79), generated with kicad-footprint-generator ipc_gullwing_generator.py")
    (tags "SOP SO")
    (path /5FE1B2E5)
    (attr smd)
    (fp_text reference U3 (at 0 -3.4 90) (layer F.SilkS)
      (effects (font (size 1 1) (thickness 0.15)))
    )
    (fp_text value PAM8302 (at 0 3.4 90) (layer F.Fab)
      (effects (font (size 1 1) (thickness 0.15)))
    )
    (fp_line (start 3.7 -2.7) (end -3.7 -2.7) (layer F.CrtYd) (width 0.05))
    (fp_line (start 3.7 2.7) (end 3.7 -2.7) (layer F.CrtYd) (width 0.05))
    (fp_line (start -3.7 2.7) (end 3.7 2.7) (layer F.CrtYd) (width 0.05))
    (fp_line (start -3.7 -2.7) (end -3.7 2.7) (layer F.CrtYd) (width 0.05))
    (fp_line (start -1.95 -1.475) (end -0.975 -2.45) (layer F.Fab) (width 0.1))
    (fp_line (start -1.95 2.45) (end -1.95 -1.475) (layer F.Fab) (width 0.1))
    (fp_line (start 1.95 2.45) (end -1.95 2.45) (layer F.Fab) (width 0.1))
    (fp_line (start 1.95 -2.45) (end 1.95 2.45) (layer F.Fab) (width 0.1))
    (fp_line (start -0.975 -2.45) (end 1.95 -2.45) (layer F.Fab) (width 0.1))
    (fp_line (start 0 -2.56) (end -3.45 -2.56) (layer F.SilkS) (width 0.12))
    (fp_line (start 0 -2.56) (end 1.95 -2.56) (layer F.SilkS) (width 0.12))
    (fp_line (start 0 2.56) (end -1.95 2.56) (layer F.SilkS) (width 0.12))
    (fp_line (start 0 2.56) (end 1.95 2.56) (layer F.SilkS) (width 0.12))
    (fp_text user %R (at 0 0 90) (layer F.Fab)
      (effects (font (size 0.98 0.98) (thickness 0.15)))
    )
    (pad 8 smd roundrect (at 2.625 -1.905 90) (size 1.65 0.6) (layers F.Cu F.Paste F.Mask) (roundrect_rratio 0.25)
      (net 21 PAM_OUT-))
    (pad 7 smd roundrect (at 2.625 -0.635 90) (size 1.65 0.6) (layers F.Cu F.Paste F.Mask) (roundrect_rratio 0.25)
      (net 1 GND))
    (pad 6 smd roundrect (at 2.625 0.635 90) (size 1.65 0.6) (layers F.Cu F.Paste F.Mask) (roundrect_rratio 0.25)
      (net 6 +5V))
    (pad 5 smd roundrect (at 2.625 1.905 90) (size 1.65 0.6) (layers F.Cu F.Paste F.Mask) (roundrect_rratio 0.25)
      (net 20 PAM_OUT+))
    (pad 4 smd roundrect (at -2.625 1.905 90) (size 1.65 0.6) (layers F.Cu F.Paste F.Mask) (roundrect_rratio 0.25)
      (net 1 GND))
    (pad 3 smd roundrect (at -2.625 0.635 90) (size 1.65 0.6) (layers F.Cu F.Paste F.Mask) (roundrect_rratio 0.25)
      (net 22 PAM_IN+))
    (pad 2 smd roundrect (at -2.625 -0.635 90) (size 1.65 0.6) (layers F.Cu F.Paste F.Mask) (roundrect_rratio 0.25))
    (pad 1 smd roundrect (at -2.625 -1.905 90) (size 1.65 0.6) (layers F.Cu F.Paste F.Mask) (roundrect_rratio 0.25)
      (net 6 +5V))
    (model ${KISYS3DMOD}/Package_SO.3dshapes/SOP-8_3.9x4.9mm_P1.27mm.wrl
      (at (xyz 0 0 0))
      (scale (xyz 1 1 1))
      (rotate (xyz 0 0 0))
    )
  )

  (module Resistor_SMD:R_0805_2012Metric (layer F.Cu) (tedit 5F68FEEE) (tstamp 5FE2444B)
    (at 76.5766 101.435 270)
    (descr "Resistor SMD 0805 (2012 Metric), square (rectangular) end terminal, IPC_7351 nominal, (Body size source: IPC-SM-782 page 72, https://www.pcb-3d.com/wordpress/wp-content/uploads/ipc-sm-782a_amendment_1_and_2.pdf), generated with kicad-footprint-generator")
    (tags resistor)
    (path /5FF09B65)
    (attr smd)
    (fp_text reference R1 (at 0 1.524 90) (layer F.SilkS)
      (effects (font (size 1 1) (thickness 0.15)))
    )
    (fp_text value 100 (at 0 1.65 90) (layer F.Fab)
      (effects (font (size 1 1) (thickness 0.15)))
    )
    (fp_line (start 1.68 0.95) (end -1.68 0.95) (layer F.CrtYd) (width 0.05))
    (fp_line (start 1.68 -0.95) (end 1.68 0.95) (layer F.CrtYd) (width 0.05))
    (fp_line (start -1.68 -0.95) (end 1.68 -0.95) (layer F.CrtYd) (width 0.05))
    (fp_line (start -1.68 0.95) (end -1.68 -0.95) (layer F.CrtYd) (width 0.05))
    (fp_line (start -0.227064 0.735) (end 0.227064 0.735) (layer F.SilkS) (width 0.12))
    (fp_line (start -0.227064 -0.735) (end 0.227064 -0.735) (layer F.SilkS) (width 0.12))
    (fp_line (start 1 0.625) (end -1 0.625) (layer F.Fab) (width 0.1))
    (fp_line (start 1 -0.625) (end 1 0.625) (layer F.Fab) (width 0.1))
    (fp_line (start -1 -0.625) (end 1 -0.625) (layer F.Fab) (width 0.1))
    (fp_line (start -1 0.625) (end -1 -0.625) (layer F.Fab) (width 0.1))
    (fp_text user %R (at 0 0 90) (layer F.Fab)
      (effects (font (size 0.5 0.5) (thickness 0.08)))
    )
    (pad 2 smd roundrect (at 0.9125 0 270) (size 1.025 1.4) (layers F.Cu F.Paste F.Mask) (roundrect_rratio 0.243902)
      (net 17 "Net-(C5-Pad2)"))
    (pad 1 smd roundrect (at -0.9125 0 270) (size 1.025 1.4) (layers F.Cu F.Paste F.Mask) (roundrect_rratio 0.243902)
      (net 22 PAM_IN+))
    (model ${KISYS3DMOD}/Resistor_SMD.3dshapes/R_0805_2012Metric.wrl
      (at (xyz 0 0 0))
      (scale (xyz 1 1 1))
      (rotate (xyz 0 0 0))
    )
  )

  (module Inductor_SMD:L_0805_2012Metric (layer F.Cu) (tedit 5F68FEF0) (tstamp 5FE22337)
    (at 71.8776 89.0396 270)
    (descr "Inductor SMD 0805 (2012 Metric), square (rectangular) end terminal, IPC_7351 nominal, (Body size source: IPC-SM-782 page 80, https://www.pcb-3d.com/wordpress/wp-content/uploads/ipc-sm-782a_amendment_1_and_2.pdf), generated with kicad-footprint-generator")
    (tags inductor)
    (path /5FE41895)
    (attr smd)
    (fp_text reference FB2 (at 0 1.7018 90) (layer F.SilkS)
      (effects (font (size 1 1) (thickness 0.15)))
    )
    (fp_text value "120 Ohm/1A" (at 0.0508 5.2324 90) (layer F.Fab)
      (effects (font (size 1 1) (thickness 0.15)))
    )
    (fp_line (start 1.75 0.85) (end -1.75 0.85) (layer F.CrtYd) (width 0.05))
    (fp_line (start 1.75 -0.85) (end 1.75 0.85) (layer F.CrtYd) (width 0.05))
    (fp_line (start -1.75 -0.85) (end 1.75 -0.85) (layer F.CrtYd) (width 0.05))
    (fp_line (start -1.75 0.85) (end -1.75 -0.85) (layer F.CrtYd) (width 0.05))
    (fp_line (start -0.399622 0.56) (end 0.399622 0.56) (layer F.SilkS) (width 0.12))
    (fp_line (start -0.399622 -0.56) (end 0.399622 -0.56) (layer F.SilkS) (width 0.12))
    (fp_line (start 1 0.45) (end -1 0.45) (layer F.Fab) (width 0.1))
    (fp_line (start 1 -0.45) (end 1 0.45) (layer F.Fab) (width 0.1))
    (fp_line (start -1 -0.45) (end 1 -0.45) (layer F.Fab) (width 0.1))
    (fp_line (start -1 0.45) (end -1 -0.45) (layer F.Fab) (width 0.1))
    (fp_text user %R (at 0 0 90) (layer F.Fab)
      (effects (font (size 0.5 0.5) (thickness 0.08)))
    )
    (pad 2 smd roundrect (at 1.0625 0 270) (size 0.875 1.2) (layers F.Cu F.Paste F.Mask) (roundrect_rratio 0.25)
      (net 21 PAM_OUT-))
    (pad 1 smd roundrect (at -1.0625 0 270) (size 0.875 1.2) (layers F.Cu F.Paste F.Mask) (roundrect_rratio 0.25)
      (net 19 "Net-(C7-Pad1)"))
    (model ${KISYS3DMOD}/Inductor_SMD.3dshapes/L_0805_2012Metric.wrl
      (at (xyz 0 0 0))
      (scale (xyz 1 1 1))
      (rotate (xyz 0 0 0))
    )
  )

  (module Inductor_SMD:L_0805_2012Metric (layer F.Cu) (tedit 5F68FEF0) (tstamp 5FE225DF)
    (at 75.713 89.0142 270)
    (descr "Inductor SMD 0805 (2012 Metric), square (rectangular) end terminal, IPC_7351 nominal, (Body size source: IPC-SM-782 page 80, https://www.pcb-3d.com/wordpress/wp-content/uploads/ipc-sm-782a_amendment_1_and_2.pdf), generated with kicad-footprint-generator")
    (tags inductor)
    (path /5FE1BC24)
    (attr smd)
    (fp_text reference FB1 (at 0 1.4732 90) (layer F.SilkS)
      (effects (font (size 1 1) (thickness 0.15)))
    )
    (fp_text value "120 Ohm/1A" (at 0.0254 -3.6068 270) (layer F.Fab)
      (effects (font (size 1 1) (thickness 0.15)))
    )
    (fp_line (start 1.75 0.85) (end -1.75 0.85) (layer F.CrtYd) (width 0.05))
    (fp_line (start 1.75 -0.85) (end 1.75 0.85) (layer F.CrtYd) (width 0.05))
    (fp_line (start -1.75 -0.85) (end 1.75 -0.85) (layer F.CrtYd) (width 0.05))
    (fp_line (start -1.75 0.85) (end -1.75 -0.85) (layer F.CrtYd) (width 0.05))
    (fp_line (start -0.399622 0.56) (end 0.399622 0.56) (layer F.SilkS) (width 0.12))
    (fp_line (start -0.399622 -0.56) (end 0.399622 -0.56) (layer F.SilkS) (width 0.12))
    (fp_line (start 1 0.45) (end -1 0.45) (layer F.Fab) (width 0.1))
    (fp_line (start 1 -0.45) (end 1 0.45) (layer F.Fab) (width 0.1))
    (fp_line (start -1 -0.45) (end 1 -0.45) (layer F.Fab) (width 0.1))
    (fp_line (start -1 0.45) (end -1 -0.45) (layer F.Fab) (width 0.1))
    (fp_text user %R (at 0 0 90) (layer F.Fab)
      (effects (font (size 0.5 0.5) (thickness 0.08)))
    )
    (pad 2 smd roundrect (at 1.0625 0 270) (size 0.875 1.2) (layers F.Cu F.Paste F.Mask) (roundrect_rratio 0.25)
      (net 20 PAM_OUT+))
    (pad 1 smd roundrect (at -1.0625 0 270) (size 0.875 1.2) (layers F.Cu F.Paste F.Mask) (roundrect_rratio 0.25)
      (net 18 "Net-(C6-Pad1)"))
    (model ${KISYS3DMOD}/Inductor_SMD.3dshapes/L_0805_2012Metric.wrl
      (at (xyz 0 0 0))
      (scale (xyz 1 1 1))
      (rotate (xyz 0 0 0))
    )
  )

  (module Capacitor_SMD:C_0805_2012Metric (layer F.Cu) (tedit 5F68FEEE) (tstamp 5FE24F59)
    (at 92.1468 94.4498 90)
    (descr "Capacitor SMD 0805 (2012 Metric), square (rectangular) end terminal, IPC_7351 nominal, (Body size source: IPC-SM-782 page 76, https://www.pcb-3d.com/wordpress/wp-content/uploads/ipc-sm-782a_amendment_1_and_2.pdf, https://docs.google.com/spreadsheets/d/1BsfQQcO9C6DZCsRaXUlFlo91Tg2WpOkGARC1WS5S8t0/edit?usp=sharing), generated with kicad-footprint-generator")
    (tags capacitor)
    (path /601C629C)
    (attr smd)
    (fp_text reference C8 (at 0 -1.68 90) (layer F.SilkS)
      (effects (font (size 1 1) (thickness 0.15)))
    )
    (fp_text value 0.1uF (at 0 1.68 90) (layer F.Fab)
      (effects (font (size 1 1) (thickness 0.15)))
    )
    (fp_line (start 1.7 0.98) (end -1.7 0.98) (layer F.CrtYd) (width 0.05))
    (fp_line (start 1.7 -0.98) (end 1.7 0.98) (layer F.CrtYd) (width 0.05))
    (fp_line (start -1.7 -0.98) (end 1.7 -0.98) (layer F.CrtYd) (width 0.05))
    (fp_line (start -1.7 0.98) (end -1.7 -0.98) (layer F.CrtYd) (width 0.05))
    (fp_line (start -0.261252 0.735) (end 0.261252 0.735) (layer F.SilkS) (width 0.12))
    (fp_line (start -0.261252 -0.735) (end 0.261252 -0.735) (layer F.SilkS) (width 0.12))
    (fp_line (start 1 0.625) (end -1 0.625) (layer F.Fab) (width 0.1))
    (fp_line (start 1 -0.625) (end 1 0.625) (layer F.Fab) (width 0.1))
    (fp_line (start -1 -0.625) (end 1 -0.625) (layer F.Fab) (width 0.1))
    (fp_line (start -1 0.625) (end -1 -0.625) (layer F.Fab) (width 0.1))
    (fp_text user %R (at -0.361159 -0.0582 90) (layer F.Fab)
      (effects (font (size 0.5 0.5) (thickness 0.08)))
    )
    (pad 2 smd roundrect (at 0.95 0 90) (size 1 1.45) (layers F.Cu F.Paste F.Mask) (roundrect_rratio 0.25)
      (net 6 +5V))
    (pad 1 smd roundrect (at -0.95 0 90) (size 1 1.45) (layers F.Cu F.Paste F.Mask) (roundrect_rratio 0.25)
      (net 1 GND))
    (model ${KISYS3DMOD}/Capacitor_SMD.3dshapes/C_0805_2012Metric.wrl
      (at (xyz 0 0 0))
      (scale (xyz 1 1 1))
      (rotate (xyz 0 0 0))
    )
  )

  (module Capacitor_SMD:C_0805_2012Metric (layer F.Cu) (tedit 5F68FEEE) (tstamp 5FE25E4E)
    (at 71.8776 84.8486 90)
    (descr "Capacitor SMD 0805 (2012 Metric), square (rectangular) end terminal, IPC_7351 nominal, (Body size source: IPC-SM-782 page 76, https://www.pcb-3d.com/wordpress/wp-content/uploads/ipc-sm-782a_amendment_1_and_2.pdf, https://docs.google.com/spreadsheets/d/1BsfQQcO9C6DZCsRaXUlFlo91Tg2WpOkGARC1WS5S8t0/edit?usp=sharing), generated with kicad-footprint-generator")
    (tags capacitor)
    (path /5FE3CD45)
    (attr smd)
    (fp_text reference C7 (at 0 -1.68 90) (layer F.SilkS)
      (effects (font (size 1 1) (thickness 0.15)))
    )
    (fp_text value 220pF (at 0 -3.7084 270) (layer F.Fab)
      (effects (font (size 1 1) (thickness 0.15)))
    )
    (fp_line (start 1.7 0.98) (end -1.7 0.98) (layer F.CrtYd) (width 0.05))
    (fp_line (start 1.7 -0.98) (end 1.7 0.98) (layer F.CrtYd) (width 0.05))
    (fp_line (start -1.7 -0.98) (end 1.7 -0.98) (layer F.CrtYd) (width 0.05))
    (fp_line (start -1.7 0.98) (end -1.7 -0.98) (layer F.CrtYd) (width 0.05))
    (fp_line (start -0.261252 0.735) (end 0.261252 0.735) (layer F.SilkS) (width 0.12))
    (fp_line (start -0.261252 -0.735) (end 0.261252 -0.735) (layer F.SilkS) (width 0.12))
    (fp_line (start 1 0.625) (end -1 0.625) (layer F.Fab) (width 0.1))
    (fp_line (start 1 -0.625) (end 1 0.625) (layer F.Fab) (width 0.1))
    (fp_line (start -1 -0.625) (end 1 -0.625) (layer F.Fab) (width 0.1))
    (fp_line (start -1 0.625) (end -1 -0.625) (layer F.Fab) (width 0.1))
    (fp_text user %R (at 0 0 90) (layer F.Fab)
      (effects (font (size 0.5 0.5) (thickness 0.08)))
    )
    (pad 2 smd roundrect (at 0.95 0 90) (size 1 1.45) (layers F.Cu F.Paste F.Mask) (roundrect_rratio 0.25)
      (net 1 GND))
    (pad 1 smd roundrect (at -0.95 0 90) (size 1 1.45) (layers F.Cu F.Paste F.Mask) (roundrect_rratio 0.25)
      (net 19 "Net-(C7-Pad1)"))
    (model ${KISYS3DMOD}/Capacitor_SMD.3dshapes/C_0805_2012Metric.wrl
      (at (xyz 0 0 0))
      (scale (xyz 1 1 1))
      (rotate (xyz 0 0 0))
    )
  )

  (module Capacitor_SMD:C_0805_2012Metric (layer F.Cu) (tedit 5F68FEEE) (tstamp 5FE1FD7C)
    (at 75.713 84.8486 90)
    (descr "Capacitor SMD 0805 (2012 Metric), square (rectangular) end terminal, IPC_7351 nominal, (Body size source: IPC-SM-782 page 76, https://www.pcb-3d.com/wordpress/wp-content/uploads/ipc-sm-782a_amendment_1_and_2.pdf, https://docs.google.com/spreadsheets/d/1BsfQQcO9C6DZCsRaXUlFlo91Tg2WpOkGARC1WS5S8t0/edit?usp=sharing), generated with kicad-footprint-generator")
    (tags capacitor)
    (path /5FE3D0CB)
    (attr smd)
    (fp_text reference C6 (at 0 -1.68 90) (layer F.SilkS)
      (effects (font (size 1 1) (thickness 0.15)))
    )
    (fp_text value 220pF (at 0 2.1082 270) (layer F.Fab)
      (effects (font (size 1 1) (thickness 0.15)))
    )
    (fp_line (start 1.7 0.98) (end -1.7 0.98) (layer F.CrtYd) (width 0.05))
    (fp_line (start 1.7 -0.98) (end 1.7 0.98) (layer F.CrtYd) (width 0.05))
    (fp_line (start -1.7 -0.98) (end 1.7 -0.98) (layer F.CrtYd) (width 0.05))
    (fp_line (start -1.7 0.98) (end -1.7 -0.98) (layer F.CrtYd) (width 0.05))
    (fp_line (start -0.261252 0.735) (end 0.261252 0.735) (layer F.SilkS) (width 0.12))
    (fp_line (start -0.261252 -0.735) (end 0.261252 -0.735) (layer F.SilkS) (width 0.12))
    (fp_line (start 1 0.625) (end -1 0.625) (layer F.Fab) (width 0.1))
    (fp_line (start 1 -0.625) (end 1 0.625) (layer F.Fab) (width 0.1))
    (fp_line (start -1 -0.625) (end 1 -0.625) (layer F.Fab) (width 0.1))
    (fp_line (start -1 0.625) (end -1 -0.625) (layer F.Fab) (width 0.1))
    (fp_text user %R (at 0 0 90) (layer F.Fab)
      (effects (font (size 0.5 0.5) (thickness 0.08)))
    )
    (pad 2 smd roundrect (at 0.95 0 90) (size 1 1.45) (layers F.Cu F.Paste F.Mask) (roundrect_rratio 0.25)
      (net 1 GND))
    (pad 1 smd roundrect (at -0.95 0 90) (size 1 1.45) (layers F.Cu F.Paste F.Mask) (roundrect_rratio 0.25)
      (net 18 "Net-(C6-Pad1)"))
    (model ${KISYS3DMOD}/Capacitor_SMD.3dshapes/C_0805_2012Metric.wrl
      (at (xyz 0 0 0))
      (scale (xyz 1 1 1))
      (rotate (xyz 0 0 0))
    )
  )

  (module Capacitor_SMD:C_0805_2012Metric (layer F.Cu) (tedit 5F68FEEE) (tstamp 601A7067)
    (at 79.7516 101.435 270)
    (descr "Capacitor SMD 0805 (2012 Metric), square (rectangular) end terminal, IPC_7351 nominal, (Body size source: IPC-SM-782 page 76, https://www.pcb-3d.com/wordpress/wp-content/uploads/ipc-sm-782a_amendment_1_and_2.pdf, https://docs.google.com/spreadsheets/d/1BsfQQcO9C6DZCsRaXUlFlo91Tg2WpOkGARC1WS5S8t0/edit?usp=sharing), generated with kicad-footprint-generator")
    (tags capacitor)
    (path /5FF0D649)
    (attr smd)
    (fp_text reference C5 (at 0 1.524 90) (layer F.SilkS)
      (effects (font (size 1 1) (thickness 0.15)))
    )
    (fp_text value 1uF (at 0 1.68 90) (layer F.Fab)
      (effects (font (size 1 1) (thickness 0.15)))
    )
    (fp_line (start 1.7 0.98) (end -1.7 0.98) (layer F.CrtYd) (width 0.05))
    (fp_line (start 1.7 -0.98) (end 1.7 0.98) (layer F.CrtYd) (width 0.05))
    (fp_line (start -1.7 -0.98) (end 1.7 -0.98) (layer F.CrtYd) (width 0.05))
    (fp_line (start -1.7 0.98) (end -1.7 -0.98) (layer F.CrtYd) (width 0.05))
    (fp_line (start -0.261252 0.735) (end 0.261252 0.735) (layer F.SilkS) (width 0.12))
    (fp_line (start -0.261252 -0.735) (end 0.261252 -0.735) (layer F.SilkS) (width 0.12))
    (fp_line (start 1 0.625) (end -1 0.625) (layer F.Fab) (width 0.1))
    (fp_line (start 1 -0.625) (end 1 0.625) (layer F.Fab) (width 0.1))
    (fp_line (start -1 -0.625) (end 1 -0.625) (layer F.Fab) (width 0.1))
    (fp_line (start -1 0.625) (end -1 -0.625) (layer F.Fab) (width 0.1))
    (fp_text user %R (at 0 0 90) (layer F.Fab)
      (effects (font (size 0.5 0.5) (thickness 0.08)))
    )
    (pad 2 smd roundrect (at 0.95 0 270) (size 1 1.45) (layers F.Cu F.Paste F.Mask) (roundrect_rratio 0.25)
      (net 17 "Net-(C5-Pad2)"))
    (pad 1 smd roundrect (at -0.95 0 270) (size 1 1.45) (layers F.Cu F.Paste F.Mask) (roundrect_rratio 0.25)
      (net 23 "Net-(C5-Pad1)"))
    (model ${KISYS3DMOD}/Capacitor_SMD.3dshapes/C_0805_2012Metric.wrl
      (at (xyz 0 0 0))
      (scale (xyz 1 1 1))
      (rotate (xyz 0 0 0))
    )
  )

  (module Capacitor_SMD:C_0805_2012Metric (layer F.Cu) (tedit 5F68FEEE) (tstamp 5FE26228)
    (at 71.8776 101.435 90)
    (descr "Capacitor SMD 0805 (2012 Metric), square (rectangular) end terminal, IPC_7351 nominal, (Body size source: IPC-SM-782 page 76, https://www.pcb-3d.com/wordpress/wp-content/uploads/ipc-sm-782a_amendment_1_and_2.pdf, https://docs.google.com/spreadsheets/d/1BsfQQcO9C6DZCsRaXUlFlo91Tg2WpOkGARC1WS5S8t0/edit?usp=sharing), generated with kicad-footprint-generator")
    (tags capacitor)
    (path /5FE1CB9C)
    (attr smd)
    (fp_text reference C4 (at 0 -1.68 90) (layer F.SilkS)
      (effects (font (size 1 1) (thickness 0.15)))
    )
    (fp_text value 0.1uF (at 0 1.68 90) (layer F.Fab)
      (effects (font (size 1 1) (thickness 0.15)))
    )
    (fp_line (start 1.7 0.98) (end -1.7 0.98) (layer F.CrtYd) (width 0.05))
    (fp_line (start 1.7 -0.98) (end 1.7 0.98) (layer F.CrtYd) (width 0.05))
    (fp_line (start -1.7 -0.98) (end 1.7 -0.98) (layer F.CrtYd) (width 0.05))
    (fp_line (start -1.7 0.98) (end -1.7 -0.98) (layer F.CrtYd) (width 0.05))
    (fp_line (start -0.261252 0.735) (end 0.261252 0.735) (layer F.SilkS) (width 0.12))
    (fp_line (start -0.261252 -0.735) (end 0.261252 -0.735) (layer F.SilkS) (width 0.12))
    (fp_line (start 1 0.625) (end -1 0.625) (layer F.Fab) (width 0.1))
    (fp_line (start 1 -0.625) (end 1 0.625) (layer F.Fab) (width 0.1))
    (fp_line (start -1 -0.625) (end 1 -0.625) (layer F.Fab) (width 0.1))
    (fp_line (start -1 0.625) (end -1 -0.625) (layer F.Fab) (width 0.1))
    (fp_text user %R (at 0 0 90) (layer F.Fab)
      (effects (font (size 0.5 0.5) (thickness 0.08)))
    )
    (pad 2 smd roundrect (at 0.95 0 90) (size 1 1.45) (layers F.Cu F.Paste F.Mask) (roundrect_rratio 0.25)
      (net 6 +5V))
    (pad 1 smd roundrect (at -0.95 0 90) (size 1 1.45) (layers F.Cu F.Paste F.Mask) (roundrect_rratio 0.25)
      (net 1 GND))
    (model ${KISYS3DMOD}/Capacitor_SMD.3dshapes/C_0805_2012Metric.wrl
      (at (xyz 0 0 0))
      (scale (xyz 1 1 1))
      (rotate (xyz 0 0 0))
    )
  )

  (module Capacitor_SMD:C_0805_2012Metric (layer F.Cu) (tedit 5F68FEEE) (tstamp 601A7183)
    (at 85.492 76.3904 90)
    (descr "Capacitor SMD 0805 (2012 Metric), square (rectangular) end terminal, IPC_7351 nominal, (Body size source: IPC-SM-782 page 76, https://www.pcb-3d.com/wordpress/wp-content/uploads/ipc-sm-782a_amendment_1_and_2.pdf, https://docs.google.com/spreadsheets/d/1BsfQQcO9C6DZCsRaXUlFlo91Tg2WpOkGARC1WS5S8t0/edit?usp=sharing), generated with kicad-footprint-generator")
    (tags capacitor)
    (path /5FE5E2C7)
    (attr smd)
    (fp_text reference C2 (at 0 -1.68 90) (layer F.SilkS)
      (effects (font (size 1 1) (thickness 0.15)))
    )
    (fp_text value 0.1uF (at 0 1.68 90) (layer F.Fab)
      (effects (font (size 1 1) (thickness 0.15)))
    )
    (fp_line (start 1.7 0.98) (end -1.7 0.98) (layer F.CrtYd) (width 0.05))
    (fp_line (start 1.7 -0.98) (end 1.7 0.98) (layer F.CrtYd) (width 0.05))
    (fp_line (start -1.7 -0.98) (end 1.7 -0.98) (layer F.CrtYd) (width 0.05))
    (fp_line (start -1.7 0.98) (end -1.7 -0.98) (layer F.CrtYd) (width 0.05))
    (fp_line (start -0.261252 0.735) (end 0.261252 0.735) (layer F.SilkS) (width 0.12))
    (fp_line (start -0.261252 -0.735) (end 0.261252 -0.735) (layer F.SilkS) (width 0.12))
    (fp_line (start 1 0.625) (end -1 0.625) (layer F.Fab) (width 0.1))
    (fp_line (start 1 -0.625) (end 1 0.625) (layer F.Fab) (width 0.1))
    (fp_line (start -1 -0.625) (end 1 -0.625) (layer F.Fab) (width 0.1))
    (fp_line (start -1 0.625) (end -1 -0.625) (layer F.Fab) (width 0.1))
    (fp_text user %R (at 0 0 90) (layer F.Fab)
      (effects (font (size 0.5 0.5) (thickness 0.08)))
    )
    (pad 2 smd roundrect (at 0.95 0 90) (size 1 1.45) (layers F.Cu F.Paste F.Mask) (roundrect_rratio 0.25)
      (net 6 +5V))
    (pad 1 smd roundrect (at -0.95 0 90) (size 1 1.45) (layers F.Cu F.Paste F.Mask) (roundrect_rratio 0.25)
      (net 1 GND))
    (model ${KISYS3DMOD}/Capacitor_SMD.3dshapes/C_0805_2012Metric.wrl
      (at (xyz 0 0 0))
      (scale (xyz 1 1 1))
      (rotate (xyz 0 0 0))
    )
  )

  (module MountingHole:MountingHole_4.3mm_M4_ISO7380_Pad_TopBottom (layer F.Cu) (tedit 56D1B4CB) (tstamp 5FD93C49)
    (at 119.45 76.87)
    (descr "Mounting Hole 4.3mm, M4, ISO7380")
    (tags "mounting hole 4.3mm m4 iso7380")
    (path /5FDDC75A)
    (attr virtual)
    (fp_text reference H2 (at 3.888 3.3304 180) (layer F.SilkS)
      (effects (font (size 1 1) (thickness 0.15)))
    )
    (fp_text value "MountingHole GND" (at 0 4.8) (layer F.Fab)
      (effects (font (size 1 1) (thickness 0.15)))
    )
    (fp_circle (center 0 0) (end 4.05 0) (layer F.CrtYd) (width 0.05))
    (fp_circle (center 0 0) (end 3.8 0) (layer Cmts.User) (width 0.15))
    (fp_text user %R (at 0.3 0) (layer F.Fab)
      (effects (font (size 1 1) (thickness 0.15)))
    )
    (pad 1 connect circle (at 0 0) (size 7.6 7.6) (layers B.Cu B.Mask)
      (net 1 GND))
    (pad 1 connect circle (at 0 0) (size 7.6 7.6) (layers F.Cu F.Mask)
      (net 1 GND))
    (pad 1 thru_hole circle (at 0 0) (size 4.7 4.7) (drill 4.3) (layers *.Cu *.Mask)
      (net 1 GND))
  )

  (module MountingHole:MountingHole_4.3mm_M4_ISO7380_Pad_TopBottom (layer F.Cu) (tedit 56D1B4CB) (tstamp 5FDD0177)
    (at 119.45 112.55)
    (descr "Mounting Hole 4.3mm, M4, ISO7380")
    (tags "mounting hole 4.3mm m4 iso7380")
    (path /5FDDB3C5)
    (attr virtual)
    (fp_text reference H1 (at 4.1674 -2.9872) (layer F.SilkS)
      (effects (font (size 1 1) (thickness 0.15)))
    )
    (fp_text value "MountingHole 5V" (at 0 4.8) (layer F.Fab)
      (effects (font (size 1 1) (thickness 0.15)))
    )
    (fp_circle (center 0 0) (end 4.05 0) (layer F.CrtYd) (width 0.05))
    (fp_circle (center 0 0) (end 3.8 0) (layer Cmts.User) (width 0.15))
    (fp_text user %R (at 0.3 0) (layer F.Fab)
      (effects (font (size 1 1) (thickness 0.15)))
    )
    (pad 1 connect circle (at 0 0) (size 7.6 7.6) (layers B.Cu B.Mask)
      (net 6 +5V))
    (pad 1 connect circle (at 0 0) (size 7.6 7.6) (layers F.Cu F.Mask)
      (net 6 +5V))
    (pad 1 thru_hole circle (at 0 0) (size 4.7 4.7) (drill 4.3) (layers *.Cu *.Mask)
      (net 6 +5V))
  )

  (module Connector_PinHeader_2.54mm:PinHeader_1x08_P2.54mm_Vertical (layer B.Cu) (tedit 59FED5CC) (tstamp 5FD9B5E7)
    (at 85.1 115.1 270)
    (descr "Through hole straight pin header, 1x08, 2.54mm pitch, single row")
    (tags "Through hole pin header THT 1x08 2.54mm single row")
    (path /5FD19BF1)
    (fp_text reference J1 (at 0 2.33 270) (layer B.SilkS)
      (effects (font (size 1 1) (thickness 0.15)) (justify mirror))
    )
    (fp_text value Conn_01x08_Female (at -3.9624 -9.7536 180) (layer B.Fab)
      (effects (font (size 1 1) (thickness 0.15)) (justify mirror))
    )
    (fp_line (start 1.8 1.8) (end -1.8 1.8) (layer B.CrtYd) (width 0.05))
    (fp_line (start 1.8 -19.55) (end 1.8 1.8) (layer B.CrtYd) (width 0.05))
    (fp_line (start -1.8 -19.55) (end 1.8 -19.55) (layer B.CrtYd) (width 0.05))
    (fp_line (start -1.8 1.8) (end -1.8 -19.55) (layer B.CrtYd) (width 0.05))
    (fp_line (start -1.33 1.33) (end 0 1.33) (layer B.SilkS) (width 0.12))
    (fp_line (start -1.33 0) (end -1.33 1.33) (layer B.SilkS) (width 0.12))
    (fp_line (start -1.33 -1.27) (end 1.33 -1.27) (layer B.SilkS) (width 0.12))
    (fp_line (start 1.33 -1.27) (end 1.33 -19.11) (layer B.SilkS) (width 0.12))
    (fp_line (start -1.33 -1.27) (end -1.33 -19.11) (layer B.SilkS) (width 0.12))
    (fp_line (start -1.33 -19.11) (end 1.33 -19.11) (layer B.SilkS) (width 0.12))
    (fp_line (start -1.27 0.635) (end -0.635 1.27) (layer B.Fab) (width 0.1))
    (fp_line (start -1.27 -19.05) (end -1.27 0.635) (layer B.Fab) (width 0.1))
    (fp_line (start 1.27 -19.05) (end -1.27 -19.05) (layer B.Fab) (width 0.1))
    (fp_line (start 1.27 1.27) (end 1.27 -19.05) (layer B.Fab) (width 0.1))
    (fp_line (start -0.635 1.27) (end 1.27 1.27) (layer B.Fab) (width 0.1))
    (fp_text user %R (at -2.4892 -9.4742 180) (layer B.Fab)
      (effects (font (size 1 1) (thickness 0.15)) (justify mirror))
    )
    (pad 8 thru_hole oval (at 0 -17.78 270) (size 1.7 1.7) (drill 1) (layers *.Cu *.Mask)
      (net 1 GND))
    (pad 7 thru_hole oval (at 0 -15.24 270) (size 1.7 1.7) (drill 1) (layers *.Cu *.Mask))
    (pad 6 thru_hole oval (at 0 -12.7 270) (size 1.7 1.7) (drill 1) (layers *.Cu *.Mask)
      (net 2 MP_A4))
    (pad 5 thru_hole oval (at 0 -10.16 270) (size 1.7 1.7) (drill 1) (layers *.Cu *.Mask)
      (net 3 595_RCLK))
    (pad 4 thru_hole oval (at 0 -7.62 270) (size 1.7 1.7) (drill 1) (layers *.Cu *.Mask)
      (net 4 595_SER))
    (pad 3 thru_hole oval (at 0 -5.08 270) (size 1.7 1.7) (drill 1) (layers *.Cu *.Mask)
      (net 5 595_SRCLK))
    (pad 2 thru_hole oval (at 0 -2.54 270) (size 1.7 1.7) (drill 1) (layers *.Cu *.Mask))
    (pad 1 thru_hole rect (at 0 0 270) (size 1.7 1.7) (drill 1) (layers *.Cu *.Mask))
    (model ${KISYS3DMOD}/Connector_PinHeader_2.54mm.3dshapes/PinHeader_1x08_P2.54mm_Vertical.wrl
      (at (xyz 0 0 0))
      (scale (xyz 1 1 1))
      (rotate (xyz 0 0 0))
    )
  )

  (module Package_DIP:DIP-16_W7.62mm_Socket_LongPads (layer F.Cu) (tedit 5A02E8C5) (tstamp 5FDCF4BF)
    (at 88.667 83.0706 90)
    (descr "16-lead though-hole mounted DIP package, row spacing 7.62 mm (300 mils), Socket, LongPads")
    (tags "THT DIP DIL PDIP 2.54mm 7.62mm 300mil Socket LongPads")
    (path /5FD002BF)
    (fp_text reference U2 (at 3.81 -2.33 90) (layer F.SilkS)
      (effects (font (size 1 1) (thickness 0.15)))
    )
    (fp_text value SN76489 (at 3.8546 20.8136 90) (layer F.SilkS)
      (effects (font (size 1.5 1.5) (thickness 0.3)))
    )
    (fp_line (start 1.635 -1.27) (end 6.985 -1.27) (layer F.Fab) (width 0.1))
    (fp_line (start 6.985 -1.27) (end 6.985 19.05) (layer F.Fab) (width 0.1))
    (fp_line (start 6.985 19.05) (end 0.635 19.05) (layer F.Fab) (width 0.1))
    (fp_line (start 0.635 19.05) (end 0.635 -0.27) (layer F.Fab) (width 0.1))
    (fp_line (start 0.635 -0.27) (end 1.635 -1.27) (layer F.Fab) (width 0.1))
    (fp_line (start -1.27 -1.33) (end -1.27 19.11) (layer F.Fab) (width 0.1))
    (fp_line (start -1.27 19.11) (end 8.89 19.11) (layer F.Fab) (width 0.1))
    (fp_line (start 8.89 19.11) (end 8.89 -1.33) (layer F.Fab) (width 0.1))
    (fp_line (start 8.89 -1.33) (end -1.27 -1.33) (layer F.Fab) (width 0.1))
    (fp_line (start 2.81 -1.33) (end 1.56 -1.33) (layer F.SilkS) (width 0.12))
    (fp_line (start 1.56 -1.33) (end 1.56 19.11) (layer F.SilkS) (width 0.12))
    (fp_line (start 1.56 19.11) (end 6.06 19.11) (layer F.SilkS) (width 0.12))
    (fp_line (start 6.06 19.11) (end 6.06 -1.33) (layer F.SilkS) (width 0.12))
    (fp_line (start 6.06 -1.33) (end 4.81 -1.33) (layer F.SilkS) (width 0.12))
    (fp_line (start -1.44 -1.39) (end -1.44 19.17) (layer F.SilkS) (width 0.12))
    (fp_line (start -1.44 19.17) (end 9.06 19.17) (layer F.SilkS) (width 0.12))
    (fp_line (start 9.06 19.17) (end 9.06 -1.39) (layer F.SilkS) (width 0.12))
    (fp_line (start 9.06 -1.39) (end -1.44 -1.39) (layer F.SilkS) (width 0.12))
    (fp_line (start -1.55 -1.6) (end -1.55 19.4) (layer F.CrtYd) (width 0.05))
    (fp_line (start -1.55 19.4) (end 9.15 19.4) (layer F.CrtYd) (width 0.05))
    (fp_line (start 9.15 19.4) (end 9.15 -1.6) (layer F.CrtYd) (width 0.05))
    (fp_line (start 9.15 -1.6) (end -1.55 -1.6) (layer F.CrtYd) (width 0.05))
    (fp_text user %R (at 3.81 8.89 90) (layer F.Fab)
      (effects (font (size 1 1) (thickness 0.15)))
    )
    (fp_arc (start 3.81 -1.33) (end 2.81 -1.33) (angle -180) (layer F.SilkS) (width 0.12))
    (pad 16 thru_hole oval (at 7.62 0 90) (size 2.4 1.6) (drill 0.8) (layers *.Cu *.Mask)
      (net 6 +5V))
    (pad 8 thru_hole oval (at 0 17.78 90) (size 2.4 1.6) (drill 0.8) (layers *.Cu *.Mask)
      (net 1 GND))
    (pad 15 thru_hole oval (at 7.62 2.54 90) (size 2.4 1.6) (drill 0.8) (layers *.Cu *.Mask)
      (net 11 D4))
    (pad 7 thru_hole oval (at 0 15.24 90) (size 2.4 1.6) (drill 0.8) (layers *.Cu *.Mask)
      (net 15 SN_OUT))
    (pad 14 thru_hole oval (at 7.62 5.08 90) (size 2.4 1.6) (drill 0.8) (layers *.Cu *.Mask)
      (net 16 SN_CLK))
    (pad 6 thru_hole oval (at 0 12.7 90) (size 2.4 1.6) (drill 0.8) (layers *.Cu *.Mask)
      (net 1 GND))
    (pad 13 thru_hole oval (at 7.62 7.62 90) (size 2.4 1.6) (drill 0.8) (layers *.Cu *.Mask)
      (net 12 D3))
    (pad 5 thru_hole oval (at 0 10.16 90) (size 2.4 1.6) (drill 0.8) (layers *.Cu *.Mask)
      (net 2 MP_A4))
    (pad 12 thru_hole oval (at 7.62 10.16 90) (size 2.4 1.6) (drill 0.8) (layers *.Cu *.Mask)
      (net 13 D2))
    (pad 4 thru_hole oval (at 0 7.62 90) (size 2.4 1.6) (drill 0.8) (layers *.Cu *.Mask))
    (pad 11 thru_hole oval (at 7.62 12.7 90) (size 2.4 1.6) (drill 0.8) (layers *.Cu *.Mask)
      (net 14 D1))
    (pad 3 thru_hole oval (at 0 5.08 90) (size 2.4 1.6) (drill 0.8) (layers *.Cu *.Mask)
      (net 8 D7))
    (pad 10 thru_hole oval (at 7.62 15.24 90) (size 2.4 1.6) (drill 0.8) (layers *.Cu *.Mask)
      (net 7 D0))
    (pad 2 thru_hole oval (at 0 2.54 90) (size 2.4 1.6) (drill 0.8) (layers *.Cu *.Mask)
      (net 9 D6))
    (pad 9 thru_hole oval (at 7.62 17.78 90) (size 2.4 1.6) (drill 0.8) (layers *.Cu *.Mask))
    (pad 1 thru_hole rect (at 0 0 90) (size 2.4 1.6) (drill 0.8) (layers *.Cu *.Mask)
      (net 10 D5))
    (model ${KISYS3DMOD}/Package_DIP.3dshapes/DIP-16_W7.62mm_Socket.wrl
      (at (xyz 0 0 0))
      (scale (xyz 1 1 1))
      (rotate (xyz 0 0 0))
    )
  )

  (gr_text VOL (at 85.3904 95.5674 90) (layer F.SilkS)
    (effects (font (size 1.5 1.5) (thickness 0.3)))
  )
  (gr_text 5V (at 113.8384 114.8968) (layer F.SilkS)
    (effects (font (size 1.5 1.5) (thickness 0.3)))
  )
  (gr_text GND (at 115.083 81.0386) (layer F.SilkS)
    (effects (font (size 1.5 1.5) (thickness 0.3)))
  )
  (gr_text GND (at 72.665 112.433) (layer F.SilkS)
    (effects (font (size 1.5 1.5) (thickness 0.3)))
  )
  (gr_text 5V (at 72.5634 109.7914) (layer F.SilkS)
    (effects (font (size 1.5 1.5) (thickness 0.3)))
  )
  (gr_text OUT+ (at 73.427 107.3276) (layer F.SilkS)
    (effects (font (size 1.5 1.5) (thickness 0.3)))
  )
  (gr_text DEBUG (at 65.6038 104.5082) (layer F.SilkS) (tstamp 601AB194)
    (effects (font (size 1.5 1.5) (thickness 0.3)))
  )
  (gr_text "Face down" (at 94.6868 101.6888) (layer B.SilkS) (tstamp 5FE28FA9)
    (effects (font (size 1.5 1.5) (thickness 0.3)) (justify mirror))
  )
  (gr_text "REV A" (at 95.5758 110.9344) (layer F.SilkS)
    (effects (font (size 1.5 1.5) (thickness 0.3)))
  )
  (gr_text "SN76489 + Audio Amp\nfor MatrixPortal M4" (at 95.2964 106.083) (layer F.SilkS)
    (effects (font (size 1.5 1.5) (thickness 0.3)))
  )
  (gr_text http://retro.moe (at 73.2746 115.6334) (layer F.SilkS)
    (effects (font (size 1.5 1.5) (thickness 0.3)))
  )
  (gr_text AUDIO (at 67.5342 73.9012) (layer F.SilkS)
    (effects (font (size 1.5 1.5) (thickness 0.3)))
  )
  (gr_text OUT- (at 72.6396 80.9116) (layer F.SilkS)
    (effects (font (size 1.5 1.5) (thickness 0.3)))
  )
  (gr_text OUT+ (at 72.6904 76.7714) (layer F.SilkS)
    (effects (font (size 1.5 1.5) (thickness 0.3)))
  )
  (dimension 35.68 (width 0.15) (layer Dwgs.User) (tstamp 5FE26D4E)
    (gr_text "35.680 mm" (at 135.736 94.71 270) (layer Dwgs.User) (tstamp 5FE26D4E)
      (effects (font (size 1 1) (thickness 0.15)))
    )
    (feature1 (pts (xy 119.45 112.55) (xy 135.022421 112.55)))
    (feature2 (pts (xy 119.45 76.87) (xy 135.022421 76.87)))
    (crossbar (pts (xy 134.436 76.87) (xy 134.436 112.55)))
    (arrow1a (pts (xy 134.436 112.55) (xy 133.849579 111.423496)))
    (arrow1b (pts (xy 134.436 112.55) (xy 135.022421 111.423496)))
    (arrow2a (pts (xy 134.436 76.87) (xy 133.849579 77.996504)))
    (arrow2b (pts (xy 134.436 76.87) (xy 135.022421 77.996504)))
  )
  (dimension 5.08 (width 0.15) (layer Dwgs.User)
    (gr_text "5.080 mm" (at 121.99 67.9404) (layer Dwgs.User)
      (effects (font (size 1 1) (thickness 0.15)))
    )
    (feature1 (pts (xy 124.53 78.3844) (xy 124.53 68.653979)))
    (feature2 (pts (xy 119.45 78.3844) (xy 119.45 68.653979)))
    (crossbar (pts (xy 119.45 69.2404) (xy 124.53 69.2404)))
    (arrow1a (pts (xy 124.53 69.2404) (xy 123.403496 69.826821)))
    (arrow1b (pts (xy 124.53 69.2404) (xy 123.403496 68.653979)))
    (arrow2a (pts (xy 119.45 69.2404) (xy 120.576504 69.826821)))
    (arrow2b (pts (xy 119.45 69.2404) (xy 120.576504 68.653979)))
  )
  (gr_arc (start 63 74.55) (end 63 72.55) (angle -90) (layer Edge.Cuts) (width 0.05) (tstamp 5FDD66EF))
  (gr_arc (start 63 115) (end 61 115) (angle -90) (layer Edge.Cuts) (width 0.05) (tstamp 5FDD66D1))
  (gr_arc (start 122.5 115) (end 122.5 117) (angle -90) (layer Edge.Cuts) (width 0.05) (tstamp 5FDD66D1))
  (gr_arc (start 122.5 74.55) (end 124.5 74.55) (angle -90) (layer Edge.Cuts) (width 0.05))
  (dimension 63.5 (width 0.15) (layer Dwgs.User)
    (gr_text "63.500 mm" (at 92.75 59.8124) (layer Dwgs.User)
      (effects (font (size 1 1) (thickness 0.15)))
    )
    (feature1 (pts (xy 124.5 72.55) (xy 124.5 60.525979)))
    (feature2 (pts (xy 61 72.55) (xy 61 60.525979)))
    (crossbar (pts (xy 61 61.1124) (xy 124.5 61.1124)))
    (arrow1a (pts (xy 124.5 61.1124) (xy 123.373496 61.698821)))
    (arrow1b (pts (xy 124.5 61.1124) (xy 123.373496 60.525979)))
    (arrow2a (pts (xy 61 61.1124) (xy 62.126504 61.698821)))
    (arrow2b (pts (xy 61 61.1124) (xy 62.126504 60.525979)))
  )
  (dimension 44.45 (width 0.15) (layer Dwgs.User)
    (gr_text "44.450 mm" (at 141.0762 94.775 270) (layer Dwgs.User)
      (effects (font (size 1 1) (thickness 0.15)))
    )
    (feature1 (pts (xy 124.5 117) (xy 140.362621 117)))
    (feature2 (pts (xy 124.5 72.55) (xy 140.362621 72.55)))
    (crossbar (pts (xy 139.7762 72.55) (xy 139.7762 117)))
    (arrow1a (pts (xy 139.7762 117) (xy 139.189779 115.873496)))
    (arrow1b (pts (xy 139.7762 117) (xy 140.362621 115.873496)))
    (arrow2a (pts (xy 139.7762 72.55) (xy 139.189779 73.676504)))
    (arrow2b (pts (xy 139.7762 72.55) (xy 140.362621 73.676504)))
  )
  (gr_line (start 124.5 74.55) (end 124.5 115) (layer Edge.Cuts) (width 0.05) (tstamp 5FD19E00))
  (gr_line (start 63 72.55) (end 122.5 72.55) (layer Edge.Cuts) (width 0.05) (tstamp 5FD19DFF))
  (gr_line (start 61 74.55) (end 61 115) (layer Edge.Cuts) (width 0.05) (tstamp 5FDCF576))
  (gr_line (start 63 117) (end 122.5 117) (layer Edge.Cuts) (width 0.05) (tstamp 5FD19F6A))

  (segment (start 101.367 83.0706) (end 101.367 81.5453) (width 0.25) (layer F.Cu) (net 1))
  (segment (start 101.367 81.5453) (end 105.6844 81.5453) (width 0.25) (layer F.Cu) (net 1))
  (segment (start 105.6844 81.5453) (end 106.447 82.3079) (width 0.25) (layer F.Cu) (net 1))
  (segment (start 106.447 82.3079) (end 117.1215 82.3079) (width 0.25) (layer F.Cu) (net 1))
  (segment (start 117.1215 82.3079) (end 117.2919 82.4783) (width 0.25) (layer F.Cu) (net 1))
  (segment (start 106.447 83.0706) (end 106.447 82.3079) (width 0.25) (layer F.Cu) (net 1))
  (segment (start 87.3798 96.1639) (end 91.3827 96.1639) (width 0.25) (layer F.Cu) (net 1))
  (segment (start 91.3827 96.1639) (end 92.1468 95.3998) (width 0.25) (layer F.Cu) (net 1))
  (segment (start 86.5613 95.3454) (end 87.3798 96.1639) (width 0.25) (layer B.Cu) (net 1))
  (segment (start 106.3348 97.7416) (end 112.441 103.8478) (width 0.25) (layer B.Cu) (net 1))
  (segment (start 104.4109 98.7597) (end 105.429 97.7416) (width 0.25) (layer B.Cu) (net 1))
  (segment (start 105.429 97.7416) (end 106.3348 97.7416) (width 0.25) (layer B.Cu) (net 1))
  (segment (start 106.447 83.0706) (end 106.447 97.6294) (width 0.25) (layer B.Cu) (net 1))
  (segment (start 106.447 97.6294) (end 106.3348 97.7416) (width 0.25) (layer B.Cu) (net 1))
  (segment (start 112.441 103.8478) (end 102.88 113.4088) (width 0.25) (layer B.Cu) (net 1))
  (segment (start 102.88 113.4088) (end 102.88 115.1) (width 0.25) (layer B.Cu) (net 1))
  (segment (start 92.1468 95.3998) (end 92.5012 95.7542) (width 0.25) (layer F.Cu) (net 1))
  (segment (start 92.5012 95.7542) (end 95.3633 95.7542) (width 0.25) (layer F.Cu) (net 1))
  (segment (start 98.0838 91.6716) (end 98.0838 93.0337) (width 0.25) (layer B.Cu) (net 1))
  (segment (start 98.0838 93.0337) (end 95.3633 95.7542) (width 0.25) (layer B.Cu) (net 1))
  (segment (start 75.713 82.7938) (end 75.713 83.8986) (width 0.25) (layer F.Cu) (net 1))
  (segment (start 71.5299 82.7922) (end 71.5299 83.5509) (width 0.25) (layer F.Cu) (net 1))
  (segment (start 71.5299 83.5509) (end 71.8776 83.8986) (width 0.25) (layer F.Cu) (net 1))
  (segment (start 118.029 83.6802) (end 117.2919 82.9431) (width 0.25) (layer F.Cu) (net 1))
  (segment (start 117.2919 82.9431) (end 117.2919 82.4783) (width 0.25) (layer F.Cu) (net 1))
  (segment (start 119.45 76.87) (end 119.45 80.3202) (width 0.25) (layer B.Cu) (net 1))
  (segment (start 119.45 80.3202) (end 117.2919 82.4783) (width 0.25) (layer B.Cu) (net 1))
  (segment (start 103.5006 98.4488) (end 104.1 98.4488) (width 0.25) (layer F.Cu) (net 1))
  (segment (start 104.1 98.4488) (end 104.4109 98.7597) (width 0.25) (layer F.Cu) (net 1))
  (segment (start 79.0245 93.7186) (end 79.3027 93.4404) (width 0.25) (layer F.Cu) (net 1))
  (segment (start 80.278 93.4404) (end 79.3027 93.4404) (width 0.25) (layer F.Cu) (net 1))
  (segment (start 76.5977 96.9775) (end 75.6876 97.8876) (width 0.25) (layer F.Cu) (net 1))
  (segment (start 73.1476 92.6376) (end 73.1476 94.0636) (width 0.25) (layer F.Cu) (net 1))
  (segment (start 85.492 78.449) (end 85.492 77.3404) (width 0.25) (layer F.Cu) (net 1))
  (segment (start 83.1917 80.4727) (end 83.4683 80.4727) (width 0.25) (layer B.Cu) (net 1))
  (segment (start 83.4683 80.4727) (end 85.492 78.449) (width 0.25) (layer B.Cu) (net 1))
  (segment (start 98.0838 91.6716) (end 97.6686 91.2564) (width 0.25) (layer B.Cu) (net 1))
  (segment (start 97.6686 91.2564) (end 97.6686 82.2166) (width 0.25) (layer B.Cu) (net 1))
  (segment (start 97.6686 82.2166) (end 98.3399 81.5453) (width 0.25) (layer B.Cu) (net 1))
  (segment (start 98.3399 81.5453) (end 101.2544 81.5453) (width 0.25) (layer B.Cu) (net 1))
  (segment (start 101.2544 81.5453) (end 101.367 81.6579) (width 0.25) (layer B.Cu) (net 1))
  (segment (start 98.4206 93.4988) (end 98.4206 92.0084) (width 0.25) (layer F.Cu) (net 1))
  (segment (start 98.4206 92.0084) (end 98.0838 91.6716) (width 0.25) (layer F.Cu) (net 1))
  (segment (start 70.252 102.385) (end 71.8776 102.385) (width 0.25) (layer F.Cu) (net 1))
  (segment (start 68.6264 102.385) (end 70.252 102.385) (width 0.25) (layer F.Cu) (net 1))
  (segment (start 101.367 83.0706) (end 101.367 81.6579) (width 0.25) (layer B.Cu) (net 1))
  (via (at 87.3798 96.1639) (size 0.8) (layers F.Cu B.Cu) (net 1))
  (via (at 75.713 82.7938) (size 0.8) (layers F.Cu B.Cu) (net 1))
  (via (at 71.5299 82.7922) (size 0.8) (layers F.Cu B.Cu) (net 1))
  (via (at 104.4109 98.7597) (size 0.8) (layers F.Cu B.Cu) (net 1))
  (via (at 95.3633 95.7542) (size 0.8) (layers F.Cu B.Cu) (net 1))
  (via (at 79.0245 93.7186) (size 0.8) (layers F.Cu B.Cu) (net 1))
  (via (at 76.5977 96.9775) (size 0.8) (layers F.Cu B.Cu) (net 1))
  (via (at 117.2919 82.4783) (size 0.8) (layers F.Cu B.Cu) (net 1))
  (via (at 73.1476 94.0636) (size 0.8) (layers F.Cu B.Cu) (net 1))
  (via (at 85.492 78.449) (size 0.8) (layers F.Cu B.Cu) (net 1))
  (via (at 70.252 102.385) (size 0.8) (layers F.Cu B.Cu) (net 1))
  (via (at 98.0838 91.6716) (size 0.8) (layers F.Cu B.Cu) (net 1))
  (segment (start 98.827 84.5959) (end 98.827 112.8977) (width 0.25) (layer B.Cu) (net 2))
  (segment (start 98.827 112.8977) (end 97.8 113.9247) (width 0.25) (layer B.Cu) (net 2))
  (segment (start 98.827 83.0706) (end 98.827 84.5959) (width 0.25) (layer B.Cu) (net 2))
  (segment (start 97.8 115.1) (end 97.8 113.9247) (width 0.25) (layer B.Cu) (net 2))
  (segment (start 95.26 115.1) (end 95.26 113.9247) (width 0.25) (layer F.Cu) (net 3))
  (segment (start 95.26 113.9247) (end 102.8656 106.3191) (width 0.25) (layer F.Cu) (net 3))
  (segment (start 102.8656 106.3191) (end 102.8656 97.373) (width 0.25) (layer F.Cu) (net 3))
  (segment (start 102.8656 97.373) (end 99.6906 94.198) (width 0.25) (layer F.Cu) (net 3))
  (segment (start 99.6906 94.198) (end 99.6906 93.4988) (width 0.25) (layer F.Cu) (net 3))
  (segment (start 92.72 115.1) (end 92.72 113.9247) (width 0.25) (layer B.Cu) (net 4))
  (segment (start 97.5806 95.438) (end 97.5806 95.1663) (width 0.25) (layer F.Cu) (net 4))
  (segment (start 97.5806 95.1663) (end 97.1506 94.7363) (width 0.25) (layer F.Cu) (net 4))
  (segment (start 97.1506 94.7363) (end 97.1506 93.4988) (width 0.25) (layer F.Cu) (net 4))
  (segment (start 92.72 113.9247) (end 97.5806 109.0641) (width 0.25) (layer B.Cu) (net 4))
  (segment (start 97.5806 109.0641) (end 97.5806 95.438) (width 0.25) (layer B.Cu) (net 4))
  (via (at 97.5806 95.438) (size 0.8) (layers F.Cu B.Cu) (net 4))
  (segment (start 90.18 115.1) (end 91.3553 115.1) (width 0.25) (layer F.Cu) (net 5))
  (segment (start 91.3553 115.1) (end 91.3553 115.4673) (width 0.25) (layer F.Cu) (net 5))
  (segment (start 91.3553 115.4673) (end 92.1769 116.2889) (width 0.25) (layer F.Cu) (net 5))
  (segment (start 92.1769 116.2889) (end 95.7925 116.2889) (width 0.25) (layer F.Cu) (net 5))
  (segment (start 95.7925 116.2889) (end 96.53 115.5514) (width 0.25) (layer F.Cu) (net 5))
  (segment (start 96.53 115.5514) (end 96.53 114.6364) (width 0.25) (layer F.Cu) (net 5))
  (segment (start 96.53 114.6364) (end 105.1804 105.986) (width 0.25) (layer F.Cu) (net 5))
  (segment (start 105.1804 105.986) (end 105.1804 98.3878) (width 0.25) (layer F.Cu) (net 5))
  (segment (start 105.1804 98.3878) (end 100.9606 94.168) (width 0.25) (layer F.Cu) (net 5))
  (segment (start 100.9606 94.168) (end 100.9606 93.4988) (width 0.25) (layer F.Cu) (net 5))
  (segment (start 75.2908 93.8931) (end 74.4176 93.0199) (width 0.35) (layer F.Cu) (net 6))
  (segment (start 74.4176 93.0199) (end 74.4176 92.6376) (width 0.35) (layer F.Cu) (net 6))
  (segment (start 86.9435 88.0947) (end 82.3832 88.0947) (width 0.35) (layer F.Cu) (net 6))
  (segment (start 82.3832 88.0947) (end 76.5848 93.8931) (width 0.35) (layer F.Cu) (net 6))
  (segment (start 76.5848 93.8931) (end 75.2908 93.8931) (width 0.35) (layer F.Cu) (net 6))
  (segment (start 71.8776 97.8876) (end 71.8776 97.3063) (width 0.35) (layer F.Cu) (net 6))
  (segment (start 71.8776 97.3063) (end 75.2908 93.8931) (width 0.35) (layer F.Cu) (net 6))
  (segment (start 71.8776 100.485) (end 71.8776 97.8876) (width 0.35) (layer F.Cu) (net 6))
  (segment (start 86.9435 88.0947) (end 92.2477 93.3989) (width 0.35) (layer F.Cu) (net 6))
  (segment (start 86.9435 76.0824) (end 86.9435 88.0947) (width 0.35) (layer F.Cu) (net 6))
  (segment (start 68.6264 100.485) (end 67.3368 101.7746) (width 0.35) (layer F.Cu) (net 6))
  (segment (start 67.3368 101.7746) (end 67.3368 108.4) (width 0.35) (layer F.Cu) (net 6))
  (segment (start 67.3368 108.4) (end 68.6518 109.715) (width 0.35) (layer F.Cu) (net 6))
  (segment (start 71.8776 100.485) (end 68.6264 100.485) (width 0.35) (layer F.Cu) (net 6))
  (segment (start 86.9435 76.0824) (end 86.134 76.0824) (width 0.35) (layer F.Cu) (net 6))
  (segment (start 86.134 76.0824) (end 85.492 75.4404) (width 0.35) (layer F.Cu) (net 6))
  (segment (start 88.667 76.0824) (end 86.9435 76.0824) (width 0.35) (layer F.Cu) (net 6))
  (segment (start 92.2477 93.3989) (end 92.1468 93.4998) (width 0.35) (layer F.Cu) (net 6))
  (segment (start 94.6106 93.4988) (end 94.5107 93.3989) (width 0.35) (layer F.Cu) (net 6))
  (segment (start 94.5107 93.3989) (end 92.2477 93.3989) (width 0.35) (layer F.Cu) (net 6))
  (segment (start 113.5022 94.9026) (end 103.111 94.9026) (width 0.35) (layer F.Cu) (net 6))
  (segment (start 103.111 94.9026) (end 102.2306 94.0222) (width 0.35) (layer F.Cu) (net 6))
  (segment (start 102.2306 94.0222) (end 102.2306 93.4988) (width 0.35) (layer F.Cu) (net 6))
  (segment (start 119.929 88.4758) (end 113.5022 94.9026) (width 0.35) (layer F.Cu) (net 6))
  (segment (start 119.45 112.55) (end 119.45 106.3327) (width 0.35) (layer F.Cu) (net 6))
  (segment (start 119.45 106.3327) (end 113.5022 100.3849) (width 0.35) (layer F.Cu) (net 6))
  (segment (start 113.5022 100.3849) (end 113.5022 94.9026) (width 0.35) (layer F.Cu) (net 6))
  (segment (start 119.929 88.4758) (end 119.929 83.6802) (width 0.35) (layer F.Cu) (net 6))
  (segment (start 120.061 88.6078) (end 119.929 88.4758) (width 0.35) (layer F.Cu) (net 6))
  (segment (start 88.667 73.8253) (end 110.0741 73.8253) (width 0.35) (layer F.Cu) (net 6))
  (segment (start 110.0741 73.8253) (end 119.929 83.6802) (width 0.35) (layer F.Cu) (net 6))
  (segment (start 88.667 75.4506) (end 88.667 73.8253) (width 0.35) (layer F.Cu) (net 6))
  (segment (start 88.667 75.5785) (end 88.667 75.4506) (width 0.35) (layer F.Cu) (net 6))
  (segment (start 88.667 75.5785) (end 88.667 76.0824) (width 0.35) (layer F.Cu) (net 6))
  (segment (start 103.907 75.4506) (end 103.907 76.9759) (width 0.25) (layer F.Cu) (net 7))
  (segment (start 103.907 76.9759) (end 92.2875 76.9759) (width 0.25) (layer F.Cu) (net 7))
  (segment (start 92.2875 76.9759) (end 87.5416 81.7218) (width 0.25) (layer F.Cu) (net 7))
  (segment (start 87.5416 81.7218) (end 87.5416 84.4095) (width 0.25) (layer F.Cu) (net 7))
  (segment (start 87.5416 84.4095) (end 95.8806 92.7485) (width 0.25) (layer F.Cu) (net 7))
  (segment (start 95.8806 92.7485) (end 95.8806 93.4988) (width 0.25) (layer F.Cu) (net 7))
  (segment (start 93.747 83.0706) (end 93.747 84.5959) (width 0.25) (layer F.Cu) (net 8))
  (segment (start 93.747 84.5959) (end 99.0556 89.9045) (width 0.25) (layer F.Cu) (net 8))
  (segment (start 99.0556 89.9045) (end 99.0556 94.5517) (width 0.25) (layer F.Cu) (net 8))
  (segment (start 99.0556 94.5517) (end 102.2306 97.7267) (width 0.25) (layer F.Cu) (net 8))
  (segment (start 102.2306 97.7267) (end 102.2306 98.4488) (width 0.25) (layer F.Cu) (net 8))
  (segment (start 100.9606 98.4488) (end 100.9606 97.735) (width 0.25) (layer F.Cu) (net 9))
  (segment (start 100.9606 97.735) (end 97.7856 94.56) (width 0.25) (layer F.Cu) (net 9))
  (segment (start 97.7856 94.56) (end 97.7856 92.4752) (width 0.25) (layer F.Cu) (net 9))
  (segment (start 97.7856 92.4752) (end 91.207 85.8966) (width 0.25) (layer F.Cu) (net 9))
  (segment (start 91.207 85.8966) (end 91.207 83.0706) (width 0.25) (layer F.Cu) (net 9))
  (segment (start 88.667 84.5959) (end 96.5156 92.4445) (width 0.25) (layer F.Cu) (net 10))
  (segment (start 96.5156 92.4445) (end 96.5156 94.7382) (width 0.25) (layer F.Cu) (net 10))
  (segment (start 96.5156 94.7382) (end 96.8553 95.0779) (width 0.25) (layer F.Cu) (net 10))
  (segment (start 96.8553 95.0779) (end 96.8553 95.7384) (width 0.25) (layer F.Cu) (net 10))
  (segment (start 96.8553 95.7384) (end 97.4373 96.3204) (width 0.25) (layer F.Cu) (net 10))
  (segment (start 97.4373 96.3204) (end 97.9434 96.3204) (width 0.25) (layer F.Cu) (net 10))
  (segment (start 97.9434 96.3204) (end 99.6906 98.0676) (width 0.25) (layer F.Cu) (net 10))
  (segment (start 99.6906 98.0676) (end 99.6906 98.4488) (width 0.25) (layer F.Cu) (net 10))
  (segment (start 88.667 83.0706) (end 88.667 84.5959) (width 0.25) (layer F.Cu) (net 10))
  (segment (start 91.207 75.4506) (end 91.207 76.9759) (width 0.25) (layer B.Cu) (net 11))
  (segment (start 93.5914 94.2242) (end 94.2368 94.8696) (width 0.25) (layer F.Cu) (net 11))
  (segment (start 94.2368 94.8696) (end 95.5102 94.8696) (width 0.25) (layer F.Cu) (net 11))
  (segment (start 95.5102 94.8696) (end 96.0887 95.4481) (width 0.25) (layer F.Cu) (net 11))
  (segment (start 96.0887 95.4481) (end 96.0887 95.6666) (width 0.25) (layer F.Cu) (net 11))
  (segment (start 96.0887 95.6666) (end 98.4206 97.9985) (width 0.25) (layer F.Cu) (net 11))
  (segment (start 98.4206 97.9985) (end 98.4206 98.4488) (width 0.25) (layer F.Cu) (net 11))
  (segment (start 91.207 76.9759) (end 92.477 78.2459) (width 0.25) (layer B.Cu) (net 11))
  (segment (start 92.477 78.2459) (end 92.477 93.1098) (width 0.25) (layer B.Cu) (net 11))
  (segment (start 92.477 93.1098) (end 93.5914 94.2242) (width 0.25) (layer B.Cu) (net 11))
  (via (at 93.5914 94.2242) (size 0.8) (layers F.Cu B.Cu) (net 11))
  (segment (start 97.1506 98.4488) (end 97.1506 98.0504) (width 0.25) (layer F.Cu) (net 12))
  (segment (start 97.1506 98.0504) (end 95.8687 96.7685) (width 0.25) (layer F.Cu) (net 12))
  (segment (start 95.8687 96.7685) (end 95.3518 96.7685) (width 0.25) (layer F.Cu) (net 12))
  (segment (start 96.287 76.9759) (end 95.037 78.2259) (width 0.25) (layer B.Cu) (net 12))
  (segment (start 95.037 78.2259) (end 95.037 94.9912) (width 0.25) (layer B.Cu) (net 12))
  (segment (start 95.037 94.9912) (end 94.638 95.3902) (width 0.25) (layer B.Cu) (net 12))
  (segment (start 94.638 95.3902) (end 94.638 96.0547) (width 0.25) (layer B.Cu) (net 12))
  (segment (start 94.638 96.0547) (end 95.3518 96.7685) (width 0.25) (layer B.Cu) (net 12))
  (segment (start 96.287 75.4506) (end 96.287 76.9759) (width 0.25) (layer B.Cu) (net 12))
  (via (at 95.3518 96.7685) (size 0.8) (layers F.Cu B.Cu) (net 12))
  (segment (start 98.827 76.9759) (end 102.5603 80.7092) (width 0.25) (layer B.Cu) (net 13))
  (segment (start 102.5603 80.7092) (end 102.5603 97.5292) (width 0.25) (layer B.Cu) (net 13))
  (segment (start 102.5603 97.5292) (end 99.8325 100.257) (width 0.25) (layer B.Cu) (net 13))
  (segment (start 99.8325 100.257) (end 99.8325 100.3477) (width 0.25) (layer B.Cu) (net 13))
  (segment (start 99.8325 100.3477) (end 97.3872 100.3477) (width 0.25) (layer F.Cu) (net 13))
  (segment (start 97.3872 100.3477) (end 95.8806 98.8411) (width 0.25) (layer F.Cu) (net 13))
  (segment (start 95.8806 98.8411) (end 95.8806 98.4488) (width 0.25) (layer F.Cu) (net 13))
  (segment (start 98.827 75.4506) (end 98.827 76.9759) (width 0.25) (layer B.Cu) (net 13))
  (via (at 99.8325 100.3477) (size 0.8) (layers F.Cu B.Cu) (net 13))
  (segment (start 101.367 75.4506) (end 101.367 73.9253) (width 0.25) (layer B.Cu) (net 14))
  (segment (start 93.5302 97.3376) (end 93.5302 97.3684) (width 0.25) (layer F.Cu) (net 14))
  (segment (start 93.5302 97.3684) (end 94.6106 98.4488) (width 0.25) (layer F.Cu) (net 14))
  (segment (start 101.367 73.9253) (end 100.91 73.4683) (width 0.25) (layer B.Cu) (net 14))
  (segment (start 100.91 73.4683) (end 91.1851 73.4683) (width 0.25) (layer B.Cu) (net 14))
  (segment (start 91.1851 73.4683) (end 90.0742 74.5792) (width 0.25) (layer B.Cu) (net 14))
  (segment (start 90.0742 74.5792) (end 90.0742 93.8816) (width 0.25) (layer B.Cu) (net 14))
  (segment (start 90.0742 93.8816) (end 93.5302 97.3376) (width 0.25) (layer B.Cu) (net 14))
  (via (at 93.5302 97.3376) (size 0.8) (layers F.Cu B.Cu) (net 14))
  (segment (start 82.578 93.4404) (end 83.5533 93.4404) (width 0.25) (layer F.Cu) (net 15))
  (segment (start 101.0146 100.1006) (end 101.0146 100.2278) (width 0.25) (layer F.Cu) (net 15))
  (segment (start 101.0146 100.2278) (end 100.1513 101.0911) (width 0.25) (layer F.Cu) (net 15))
  (segment (start 100.1513 101.0911) (end 91.204 101.0911) (width 0.25) (layer F.Cu) (net 15))
  (segment (start 91.204 101.0911) (end 83.5533 93.4404) (width 0.25) (layer F.Cu) (net 15))
  (segment (start 103.907 83.0706) (end 103.907 97.2082) (width 0.25) (layer B.Cu) (net 15))
  (segment (start 103.907 97.2082) (end 101.0146 100.1006) (width 0.25) (layer B.Cu) (net 15))
  (via (at 101.0146 100.1006) (size 0.8) (layers F.Cu B.Cu) (net 15))
  (segment (start 120.061 103.8478) (end 110.0676 93.8544) (width 0.25) (layer B.Cu) (net 16))
  (segment (start 110.0676 93.8544) (end 110.0676 84.6946) (width 0.25) (layer B.Cu) (net 16))
  (segment (start 110.0676 84.6946) (end 104.6844 79.3114) (width 0.25) (layer B.Cu) (net 16))
  (segment (start 104.6844 79.3114) (end 103.1798 79.3114) (width 0.25) (layer B.Cu) (net 16))
  (segment (start 103.1798 79.3114) (end 99.9524 76.084) (width 0.25) (layer B.Cu) (net 16))
  (segment (start 99.9524 76.084) (end 99.9524 74.5667) (width 0.25) (layer B.Cu) (net 16))
  (segment (start 99.9524 74.5667) (end 99.311 73.9253) (width 0.25) (layer B.Cu) (net 16))
  (segment (start 99.311 73.9253) (end 93.747 73.9253) (width 0.25) (layer B.Cu) (net 16))
  (segment (start 93.747 75.4506) (end 93.747 73.9253) (width 0.25) (layer B.Cu) (net 16))
  (segment (start 76.5766 102.3475) (end 79.7141 102.3475) (width 0.25) (layer F.Cu) (net 17))
  (segment (start 79.7141 102.3475) (end 79.7516 102.385) (width 0.25) (layer F.Cu) (net 17))
  (segment (start 75.713 85.7986) (end 66.762 76.8476) (width 0.25) (layer F.Cu) (net 18))
  (segment (start 66.762 76.8476) (end 66.4879 76.8476) (width 0.25) (layer F.Cu) (net 18))
  (segment (start 65.1466 76.8476) (end 66.4879 76.8476) (width 0.25) (layer F.Cu) (net 18))
  (segment (start 75.713 87.9517) (end 75.713 85.7986) (width 0.25) (layer F.Cu) (net 18))
  (segment (start 71.8776 85.7986) (end 70.6 85.7986) (width 0.25) (layer F.Cu) (net 19))
  (segment (start 70.6 85.7986) (end 65.1466 80.3452) (width 0.25) (layer F.Cu) (net 19))
  (segment (start 71.8776 87.9771) (end 71.8776 85.7986) (width 0.25) (layer F.Cu) (net 19))
  (segment (start 75.713 90.0767) (end 75.6876 90.1021) (width 0.25) (layer F.Cu) (net 20))
  (segment (start 75.6876 90.1021) (end 75.6876 92.6376) (width 0.25) (layer F.Cu) (net 20))
  (segment (start 71.8776 90.1021) (end 71.8776 92.6376) (width 0.25) (layer F.Cu) (net 21))
  (segment (start 68.6518 107.175) (end 69.8271 107.175) (width 0.25) (layer F.Cu) (net 22))
  (segment (start 76.5766 100.5225) (end 76.4796 100.5225) (width 0.25) (layer F.Cu) (net 22))
  (segment (start 76.4796 100.5225) (end 69.8271 107.175) (width 0.25) (layer F.Cu) (net 22))
  (segment (start 76.5766 100.5225) (end 74.4176 98.3635) (width 0.25) (layer F.Cu) (net 22))
  (segment (start 74.4176 98.3635) (end 74.4176 97.8876) (width 0.25) (layer F.Cu) (net 22))
  (segment (start 79.7516 100.485) (end 81.428 98.8086) (width 0.25) (layer F.Cu) (net 23))
  (segment (start 81.428 98.8086) (end 81.428 97.4404) (width 0.25) (layer F.Cu) (net 23))

  (zone (net 1) (net_name GND) (layer B.Cu) (tstamp 0) (hatch edge 0.508)
    (connect_pads (clearance 0.508))
    (min_thickness 0.254)
    (fill yes (arc_segments 32) (thermal_gap 0.508) (thermal_bridge_width 0.508))
    (polygon
      (pts
        (xy 86.8636 94.8054) (xy 78.7864 121.2722) (xy 52.2688 120.9928) (xy 51.8624 93.7386) (xy 51.7862 69.634)
        (xy 80.4628 69.5324)
      )
    )
    (filled_polygon
      (pts
        (xy 86.731786 94.802226) (xy 80.158838 116.34) (xy 63.032279 116.34) (xy 62.74034 116.311375) (xy 62.490571 116.235965)
        (xy 62.260206 116.113477) (xy 62.058021 115.948579) (xy 61.891712 115.747546) (xy 61.767622 115.518046) (xy 61.690469 115.268805)
        (xy 61.66 114.978911) (xy 61.66 113.105) (xy 67.163728 113.105) (xy 67.175988 113.229482) (xy 67.212298 113.34918)
        (xy 67.271263 113.459494) (xy 67.350615 113.556185) (xy 67.447306 113.635537) (xy 67.55762 113.694502) (xy 67.677318 113.730812)
        (xy 67.8018 113.743072) (xy 68.36605 113.74) (xy 68.5248 113.58125) (xy 68.5248 112.382) (xy 68.7788 112.382)
        (xy 68.7788 113.58125) (xy 68.93755 113.74) (xy 69.5018 113.743072) (xy 69.626282 113.730812) (xy 69.74598 113.694502)
        (xy 69.856294 113.635537) (xy 69.952985 113.556185) (xy 70.032337 113.459494) (xy 70.091302 113.34918) (xy 70.127612 113.229482)
        (xy 70.139872 113.105) (xy 70.1368 112.54075) (xy 69.97805 112.382) (xy 68.7788 112.382) (xy 68.5248 112.382)
        (xy 67.32555 112.382) (xy 67.1668 112.54075) (xy 67.163728 113.105) (xy 61.66 113.105) (xy 61.66 111.405)
        (xy 67.163728 111.405) (xy 67.1668 111.96925) (xy 67.32555 112.128) (xy 68.5248 112.128) (xy 68.5248 112.108)
        (xy 68.7788 112.108) (xy 68.7788 112.128) (xy 69.97805 112.128) (xy 70.1368 111.96925) (xy 70.139872 111.405)
        (xy 70.127612 111.280518) (xy 70.091302 111.16082) (xy 70.032337 111.050506) (xy 69.952985 110.953815) (xy 69.856294 110.874463)
        (xy 69.74598 110.815498) (xy 69.67342 110.793487) (xy 69.805275 110.661632) (xy 69.96779 110.418411) (xy 70.079732 110.148158)
        (xy 70.1368 109.86126) (xy 70.1368 109.56874) (xy 70.079732 109.281842) (xy 69.96779 109.011589) (xy 69.805275 108.768368)
        (xy 69.598432 108.561525) (xy 69.42404 108.445) (xy 69.598432 108.328475) (xy 69.805275 108.121632) (xy 69.96779 107.878411)
        (xy 70.079732 107.608158) (xy 70.1368 107.32126) (xy 70.1368 107.02874) (xy 70.079732 106.741842) (xy 69.96779 106.471589)
        (xy 69.805275 106.228368) (xy 69.598432 106.021525) (xy 69.355211 105.85901) (xy 69.084958 105.747068) (xy 68.79806 105.69)
        (xy 68.50554 105.69) (xy 68.218642 105.747068) (xy 67.948389 105.85901) (xy 67.705168 106.021525) (xy 67.498325 106.228368)
        (xy 67.33581 106.471589) (xy 67.223868 106.741842) (xy 67.1668 107.02874) (xy 67.1668 107.32126) (xy 67.223868 107.608158)
        (xy 67.33581 107.878411) (xy 67.498325 108.121632) (xy 67.705168 108.328475) (xy 67.87956 108.445) (xy 67.705168 108.561525)
        (xy 67.498325 108.768368) (xy 67.33581 109.011589) (xy 67.223868 109.281842) (xy 67.1668 109.56874) (xy 67.1668 109.86126)
        (xy 67.223868 110.148158) (xy 67.33581 110.418411) (xy 67.498325 110.661632) (xy 67.63018 110.793487) (xy 67.55762 110.815498)
        (xy 67.447306 110.874463) (xy 67.350615 110.953815) (xy 67.271263 111.050506) (xy 67.212298 111.16082) (xy 67.175988 111.280518)
        (xy 67.163728 111.405) (xy 61.66 111.405) (xy 61.66 80.182571) (xy 63.4956 80.182571) (xy 63.4956 80.507789)
        (xy 63.559047 80.826759) (xy 63.683503 81.127222) (xy 63.864185 81.397631) (xy 64.094149 81.627595) (xy 64.364558 81.808277)
        (xy 64.665021 81.932733) (xy 64.983991 81.99618) (xy 65.309209 81.99618) (xy 65.628179 81.932733) (xy 65.928642 81.808277)
        (xy 66.199051 81.627595) (xy 66.429015 81.397631) (xy 66.609697 81.127222) (xy 66.734153 80.826759) (xy 66.7976 80.507789)
        (xy 66.7976 80.182571) (xy 66.734153 79.863601) (xy 66.609697 79.563138) (xy 66.429015 79.292729) (xy 66.199051 79.062765)
        (xy 65.928642 78.882083) (xy 65.628179 78.757627) (xy 65.309209 78.69418) (xy 64.983991 78.69418) (xy 64.665021 78.757627)
        (xy 64.364558 78.882083) (xy 64.094149 79.062765) (xy 63.864185 79.292729) (xy 63.683503 79.563138) (xy 63.559047 79.863601)
        (xy 63.4956 80.182571) (xy 61.66 80.182571) (xy 61.66 75.8316) (xy 63.492528 75.8316) (xy 63.492528 77.8636)
        (xy 63.504788 77.988082) (xy 63.541098 78.10778) (xy 63.600063 78.218094) (xy 63.679415 78.314785) (xy 63.776106 78.394137)
        (xy 63.88642 78.453102) (xy 64.006118 78.489412) (xy 64.1306 78.501672) (xy 66.1626 78.501672) (xy 66.287082 78.489412)
        (xy 66.40678 78.453102) (xy 66.517094 78.394137) (xy 66.613785 78.314785) (xy 66.693137 78.218094) (xy 66.752102 78.10778)
        (xy 66.788412 77.988082) (xy 66.800672 77.8636) (xy 66.800672 75.8316) (xy 66.788412 75.707118) (xy 66.752102 75.58742)
        (xy 66.693137 75.477106) (xy 66.613785 75.380415) (xy 66.517094 75.301063) (xy 66.40678 75.242098) (xy 66.287082 75.205788)
        (xy 66.1626 75.193528) (xy 64.1306 75.193528) (xy 64.006118 75.205788) (xy 63.88642 75.242098) (xy 63.776106 75.301063)
        (xy 63.679415 75.380415) (xy 63.600063 75.477106) (xy 63.541098 75.58742) (xy 63.504788 75.707118) (xy 63.492528 75.8316)
        (xy 61.66 75.8316) (xy 61.66 74.582279) (xy 61.688625 74.290341) (xy 61.764035 74.040571) (xy 61.886522 73.810208)
        (xy 62.051422 73.60802) (xy 62.25245 73.441714) (xy 62.481954 73.317622) (xy 62.731195 73.240469) (xy 63.021088 73.21)
        (xy 81.263203 73.21)
      )
    )
  )
)
