EESchema Schematic File Version 4
EELAYER 30 0
EELAYER END
$Descr A4 11693 8268
encoding utf-8
Sheet 1 1
Title "SN76489 shield for MatrixPortal M4"
Date "2020-12-18"
Rev "A"
Comp "Ricardo Quesada"
Comment1 ""
Comment2 ""
Comment3 ""
Comment4 ""
$EndDescr
$Comp
L 74xx:74HC595 U1
U 1 1 5FCF98EA
P 6650 1850
F 0 "U1" H 7050 1150 50  0000 C CNN
F 1 "74HC595" H 7150 1050 50  0000 C CNN
F 2 "Package_DIP:DIP-16_W7.62mm_Socket_LongPads" H 6650 1850 50  0001 C CNN
F 3 "http://www.ti.com/lit/ds/symlink/sn74hc595.pdf" H 6650 1850 50  0001 C CNN
	1    6650 1850
	1    0    0    -1  
$EndComp
Text GLabel 8350 2100 2    50   Input ~ 0
MP_A1
Text GLabel 8350 2200 2    50   Input ~ 0
MP_A2
Text GLabel 8350 2300 2    50   Input ~ 0
MP_A3
Text GLabel 8350 2400 2    50   Input ~ 0
MP_A4
Wire Wire Line
	8200 1900 8350 1900
Wire Wire Line
	8200 2000 8350 2000
Wire Wire Line
	8200 2100 8350 2100
Wire Wire Line
	8200 2200 8350 2200
Wire Wire Line
	8200 2300 8350 2300
Wire Wire Line
	8200 2400 8350 2400
Wire Wire Line
	8200 2600 8350 2600
$Comp
L Connector:Conn_01x08_Female J1
U 1 1 5FD19BF1
P 8000 2200
F 0 "J1" H 7892 2685 50  0000 C CNN
F 1 "Conn_01x08_Female" H 7892 2594 50  0000 C CNN
F 2 "Connector_PinHeader_2.54mm:PinHeader_1x08_P2.54mm_Vertical" H 8000 2200 50  0001 C CNN
F 3 "~" H 8000 2200 50  0001 C CNN
	1    8000 2200
	-1   0    0    -1  
$EndComp
Wire Wire Line
	8350 2600 8350 2700
$Comp
L power:GND #PWR0101
U 1 1 5FD1E5D1
P 8350 2700
F 0 "#PWR0101" H 8350 2450 50  0001 C CNN
F 1 "GND" H 8355 2527 50  0000 C CNN
F 2 "" H 8350 2700 50  0001 C CNN
F 3 "" H 8350 2700 50  0001 C CNN
	1    8350 2700
	1    0    0    -1  
$EndComp
$Comp
L power:GND #PWR0102
U 1 1 5FD1EED3
P 6650 2650
F 0 "#PWR0102" H 6650 2400 50  0001 C CNN
F 1 "GND" H 6655 2477 50  0000 C CNN
F 2 "" H 6650 2650 50  0001 C CNN
F 3 "" H 6650 2650 50  0001 C CNN
	1    6650 2650
	1    0    0    -1  
$EndComp
Wire Wire Line
	6250 1650 6050 1650
Wire Wire Line
	6250 1450 6050 1450
Wire Wire Line
	5450 1750 5450 1700
Wire Wire Line
	5450 1750 6250 1750
$Comp
L power:+5V #PWR0103
U 1 1 5FD43220
P 5450 1700
F 0 "#PWR0103" H 5450 1550 50  0001 C CNN
F 1 "+5V" H 5465 1873 50  0000 C CNN
F 2 "" H 5450 1700 50  0001 C CNN
F 3 "" H 5450 1700 50  0001 C CNN
	1    5450 1700
	1    0    0    -1  
$EndComp
Wire Wire Line
	6250 1950 6050 1950
Wire Wire Line
	6650 1250 6650 1000
$Comp
L power:+5V #PWR0104
U 1 1 5FD44056
P 6650 950
F 0 "#PWR0104" H 6650 800 50  0001 C CNN
F 1 "+5V" H 6665 1123 50  0000 C CNN
F 2 "" H 6650 950 50  0001 C CNN
F 3 "" H 6650 950 50  0001 C CNN
	1    6650 950 
	1    0    0    -1  
$EndComp
Wire Wire Line
	6250 2050 6100 2050
Wire Wire Line
	6100 2050 6100 2150
$Comp
L power:GND #PWR0105
U 1 1 5FD449B6
P 6100 2150
F 0 "#PWR0105" H 6100 1900 50  0001 C CNN
F 1 "GND" H 6105 1977 50  0000 C CNN
F 2 "" H 6100 2150 50  0001 C CNN
F 3 "" H 6100 2150 50  0001 C CNN
	1    6100 2150
	1    0    0    -1  
$EndComp
NoConn ~ 7050 2350
Wire Wire Line
	8200 2500 8350 2500
Wire Wire Line
	7050 1450 7150 1450
Wire Wire Line
	7050 1550 7150 1550
Wire Wire Line
	7050 1650 7150 1650
Wire Wire Line
	7050 1750 7150 1750
Wire Wire Line
	7050 1850 7150 1850
Wire Wire Line
	7050 1950 7150 1950
Wire Wire Line
	7050 2050 7150 2050
Wire Wire Line
	7050 2150 7150 2150
Wire Wire Line
	2950 1450 2850 1450
Wire Wire Line
	2950 1550 2850 1550
Wire Wire Line
	2950 1650 2850 1650
Wire Wire Line
	2950 1750 2850 1750
Wire Wire Line
	2950 1850 2850 1850
Wire Wire Line
	2950 1950 2850 1950
Wire Wire Line
	2950 2050 2850 2050
Wire Wire Line
	2950 2150 2850 2150
Text GLabel 7150 1450 2    50   Input ~ 0
D0
Text GLabel 7150 1550 2    50   Input ~ 0
D1
Text GLabel 7150 1650 2    50   Input ~ 0
D2
Text GLabel 7150 1750 2    50   Input ~ 0
D3
Text GLabel 7150 1850 2    50   Input ~ 0
D4
Text GLabel 7150 1950 2    50   Input ~ 0
D5
Text GLabel 7150 2050 2    50   Input ~ 0
D6
Text GLabel 7150 2150 2    50   Input ~ 0
D7
Text GLabel 2850 1450 0    50   Input ~ 0
D0
Text GLabel 2850 1550 0    50   Input ~ 0
D1
Text GLabel 2850 1650 0    50   Input ~ 0
D2
Text GLabel 2850 1750 0    50   Input ~ 0
D3
Text GLabel 2850 1850 0    50   Input ~ 0
D4
Text GLabel 2850 1950 0    50   Input ~ 0
D5
Text GLabel 2850 2050 0    50   Input ~ 0
D6
Text GLabel 2850 2150 0    50   Input ~ 0
D7
$Comp
L power:GND #PWR0107
U 1 1 5FD5886B
P 3450 2550
F 0 "#PWR0107" H 3450 2300 50  0001 C CNN
F 1 "GND" H 3455 2377 50  0000 C CNN
F 2 "" H 3450 2550 50  0001 C CNN
F 3 "" H 3450 2550 50  0001 C CNN
	1    3450 2550
	1    0    0    -1  
$EndComp
Wire Wire Line
	3950 1850 4000 1850
Text GLabel 4000 1850 2    50   Input ~ 0
SN_CLK
NoConn ~ 3950 1650
Text GLabel 4500 2050 2    50   Input ~ 0
SN_OUT
Wire Wire Line
	3950 1450 4000 1450
Text GLabel 4000 1450 2    50   Input ~ 0
SN_WE
Text GLabel 9450 2400 0    50   Input ~ 0
MP_A4
Wire Wire Line
	9450 2400 9600 2400
Text GLabel 9600 2400 2    50   Input ~ 0
SN_WE
Text GLabel 9450 2100 0    50   Input ~ 0
MP_A1
Text GLabel 9450 2200 0    50   Input ~ 0
MP_A2
Text GLabel 9450 2300 0    50   Input ~ 0
MP_A3
Wire Wire Line
	9450 2300 9600 2300
Wire Wire Line
	9450 2200 9600 2200
Wire Wire Line
	9450 2100 9600 2100
Text GLabel 9600 2200 2    50   Input ~ 0
595_SER
Text GLabel 9600 2100 2    50   Input ~ 0
595_SRCLK
Text GLabel 9600 2300 2    50   Input ~ 0
595_RCLK
Text GLabel 6050 1450 0    50   Input ~ 0
595_SER
Text GLabel 6050 1650 0    50   Input ~ 0
595_SRCLK
Text GLabel 6050 1950 0    50   Input ~ 0
595_RCLK
Text GLabel 8350 1900 2    50   Input ~ 0
MP_TX
Text GLabel 8350 2000 2    50   Input ~ 0
MP_RX
Text GLabel 8350 2500 2    50   Input ~ 0
MP_3V3
Text GLabel 9500 2500 0    50   Input ~ 0
MP_3V3
Text GLabel 9450 1900 0    50   Input ~ 0
MP_TX
Text GLabel 9450 2000 0    50   Input ~ 0
MP_RX
Wire Wire Line
	9450 2000 9600 2000
Wire Wire Line
	9450 1900 9600 1900
Wire Wire Line
	9500 2500 9600 2500
NoConn ~ 9600 1900
NoConn ~ 9600 2000
NoConn ~ 9600 2500
$Comp
L power:GND #PWR0106
U 1 1 5FD9C9A3
P 1600 1250
F 0 "#PWR0106" H 1600 1000 50  0001 C CNN
F 1 "GND" H 1605 1077 50  0000 C CNN
F 2 "" H 1600 1250 50  0001 C CNN
F 3 "" H 1600 1250 50  0001 C CNN
	1    1600 1250
	1    0    0    -1  
$EndComp
Text GLabel 1500 1550 2    50   Input ~ 0
SN_OUT
$Comp
L power:+5V #PWR0108
U 1 1 5FDA4FA9
P 3450 700
F 0 "#PWR0108" H 3450 550 50  0001 C CNN
F 1 "+5V" H 3465 873 50  0000 C CNN
F 2 "" H 3450 700 50  0001 C CNN
F 3 "" H 3450 700 50  0001 C CNN
	1    3450 700 
	1    0    0    -1  
$EndComp
$Comp
L SN76489:SN76489 U2
U 1 1 5FD002BF
P 3450 2300
F 0 "U2" H 3800 2250 60  0000 C CNN
F 1 "SN76489" H 3950 2150 60  0000 C CNN
F 2 "Package_DIP:DIP-16_W7.62mm_Socket_LongPads" H 3200 3300 60  0001 C CNN
F 3 "" H 3200 3300 60  0001 C CNN
	1    3450 2300
	1    0    0    -1  
$EndComp
$Comp
L power:GND #PWR0112
U 1 1 5FD37FAA
P 4400 1600
F 0 "#PWR0112" H 4400 1350 50  0001 C CNN
F 1 "GND" H 4405 1427 50  0000 C CNN
F 2 "" H 4400 1600 50  0001 C CNN
F 3 "" H 4400 1600 50  0001 C CNN
	1    4400 1600
	1    0    0    -1  
$EndComp
$Comp
L Oscillator:ACO-xxxMHz-A X1
U 1 1 5FDAF0AE
P 8550 1050
F 0 "X1" H 8900 900 50  0000 L CNN
F 1 "3.579545Mhz" H 8900 800 50  0000 L CNN
F 2 "Oscillator:Oscillator_DIP-14" H 9000 700 50  0001 C CNN
F 3 "http://www.conwin.com/datasheets/cx/cx030.pdf" H 8275 1175 50  0001 C CNN
	1    8550 1050
	1    0    0    -1  
$EndComp
Wire Wire Line
	8850 1050 8900 1050
Text GLabel 8900 1050 2    50   Input ~ 0
SN_CLK
Wire Wire Line
	8550 1350 8550 1400
Wire Wire Line
	8550 750  8550 700 
$Comp
L power:+5V #PWR0110
U 1 1 5FDB81D7
P 8550 700
F 0 "#PWR0110" H 8550 550 50  0001 C CNN
F 1 "+5V" H 8565 873 50  0000 C CNN
F 2 "" H 8550 700 50  0001 C CNN
F 3 "" H 8550 700 50  0001 C CNN
	1    8550 700 
	1    0    0    -1  
$EndComp
$Comp
L power:GND #PWR0111
U 1 1 5FDB873E
P 8550 1400
F 0 "#PWR0111" H 8550 1150 50  0001 C CNN
F 1 "GND" H 8555 1227 50  0000 C CNN
F 2 "" H 8550 1400 50  0001 C CNN
F 3 "" H 8550 1400 50  0001 C CNN
	1    8550 1400
	1    0    0    -1  
$EndComp
NoConn ~ 8050 1050
$Comp
L Mechanical:MountingHole_Pad H1
U 1 1 5FDDB3C5
P 2250 3800
F 0 "H1" V 2204 3950 50  0000 L CNN
F 1 "MountingHole 5V" V 2295 3950 50  0000 L CNN
F 2 "MountingHole:MountingHole_4.3mm_M4_ISO7380_Pad_TopBottom" H 2250 3800 50  0001 C CNN
F 3 "~" H 2250 3800 50  0001 C CNN
	1    2250 3800
	0    1    1    0   
$EndComp
$Comp
L Mechanical:MountingHole_Pad H2
U 1 1 5FDDC75A
P 2250 4000
F 0 "H2" V 2204 4150 50  0000 L CNN
F 1 "MountingHole GND" V 2295 4150 50  0000 L CNN
F 2 "MountingHole:MountingHole_4.3mm_M4_ISO7380_Pad_TopBottom" H 2250 4000 50  0001 C CNN
F 3 "~" H 2250 4000 50  0001 C CNN
	1    2250 4000
	0    1    1    0   
$EndComp
Wire Wire Line
	2150 4000 1950 4000
Wire Wire Line
	1950 4000 1950 4150
Wire Wire Line
	2150 3800 1950 3800
Wire Wire Line
	1950 3800 1950 3700
$Comp
L power:+5V #PWR0113
U 1 1 5FE0EF25
P 1950 3700
F 0 "#PWR0113" H 1950 3550 50  0001 C CNN
F 1 "+5V" H 1965 3873 50  0000 C CNN
F 2 "" H 1950 3700 50  0001 C CNN
F 3 "" H 1950 3700 50  0001 C CNN
	1    1950 3700
	1    0    0    -1  
$EndComp
$Comp
L power:GND #PWR0114
U 1 1 5FE0F363
P 1950 4150
F 0 "#PWR0114" H 1950 3900 50  0001 C CNN
F 1 "GND" H 1955 3977 50  0000 C CNN
F 2 "" H 1950 4150 50  0001 C CNN
F 3 "" H 1950 4150 50  0001 C CNN
	1    1950 4150
	1    0    0    -1  
$EndComp
Connection ~ 6650 1000
Wire Wire Line
	6650 1000 6650 950 
Wire Wire Line
	7450 1000 7450 1050
Wire Wire Line
	6650 1000 7450 1000
$Comp
L Device:C_Small C1
U 1 1 5FE48851
P 7450 1150
F 0 "C1" H 7542 1196 50  0000 L CNN
F 1 "0.1uf" H 7542 1105 50  0000 L CNN
F 2 "Capacitor_THT:C_Disc_D3.0mm_W1.6mm_P2.50mm" H 7450 1150 50  0001 C CNN
F 3 "~" H 7450 1150 50  0001 C CNN
	1    7450 1150
	1    0    0    -1  
$EndComp
Wire Wire Line
	3950 1550 4400 1550
Wire Wire Line
	4400 1550 4400 1600
Wire Wire Line
	2900 800  2900 850 
$Comp
L Device:C_Small C2
U 1 1 5FE5E2C7
P 2900 950
F 0 "C2" H 2992 996 50  0000 L CNN
F 1 "0.1uF" H 2992 905 50  0000 L CNN
F 2 "Capacitor_THT:C_Disc_D3.0mm_W1.6mm_P2.50mm" H 2900 950 50  0001 C CNN
F 3 "~" H 2900 950 50  0001 C CNN
	1    2900 950 
	1    0    0    -1  
$EndComp
$Comp
L Device:CP_Small C3
U 1 1 5FE72E2B
P 4250 2050
F 0 "C3" V 4350 2050 50  0000 C CNN
F 1 "470uF" V 4100 2050 50  0000 C CNN
F 2 "Capacitor_THT:CP_Radial_D6.3mm_P2.50mm" H 4250 2050 50  0001 C CNN
F 3 "~" H 4250 2050 50  0001 C CNN
	1    4250 2050
	0    -1   -1   0   
$EndComp
Wire Wire Line
	3450 2450 3450 2550
Wire Wire Line
	2900 1050 2900 1100
$Comp
L power:GND #PWR0109
U 1 1 5FE90D67
P 2900 1100
F 0 "#PWR0109" H 2900 850 50  0001 C CNN
F 1 "GND" H 2905 927 50  0000 C CNN
F 2 "" H 2900 1100 50  0001 C CNN
F 3 "" H 2900 1100 50  0001 C CNN
	1    2900 1100
	1    0    0    -1  
$EndComp
Wire Wire Line
	3950 2050 4150 2050
Wire Wire Line
	4350 2050 4500 2050
Wire Wire Line
	3450 700  3450 800 
Wire Wire Line
	2900 800  3450 800 
Connection ~ 3450 800 
Wire Wire Line
	3450 800  3450 1150
Wire Wire Line
	6650 2550 6650 2650
Wire Wire Line
	7450 1250 7450 1350
$Comp
L power:GND #PWR0115
U 1 1 5FEB0BD4
P 7450 1350
F 0 "#PWR0115" H 7450 1100 50  0001 C CNN
F 1 "GND" H 7455 1177 50  0000 C CNN
F 2 "" H 7450 1350 50  0001 C CNN
F 3 "" H 7450 1350 50  0001 C CNN
	1    7450 1350
	1    0    0    -1  
$EndComp
Wire Wire Line
	1350 1250 1600 1250
$Comp
L Connector:Conn_01x02_Male J4
U 1 1 5FDEEAF1
P 1100 3850
F 0 "J4" H 1000 3900 50  0000 C CNN
F 1 "Conn_01x02_Male" H 900 3650 50  0000 C CNN
F 2 "Connector_PinHeader_2.54mm:PinHeader_1x02_P2.54mm_Horizontal" H 1100 3850 50  0001 C CNN
F 3 "~" H 1100 3850 50  0001 C CNN
	1    1100 3850
	1    0    0    -1  
$EndComp
$Comp
L power:+5V #PWR0116
U 1 1 5FE0F76F
P 1400 3800
F 0 "#PWR0116" H 1400 3650 50  0001 C CNN
F 1 "+5V" H 1415 3973 50  0000 C CNN
F 2 "" H 1400 3800 50  0001 C CNN
F 3 "" H 1400 3800 50  0001 C CNN
	1    1400 3800
	1    0    0    -1  
$EndComp
$Comp
L power:GND #PWR0117
U 1 1 5FE0FE2D
P 1400 4000
F 0 "#PWR0117" H 1400 3750 50  0001 C CNN
F 1 "GND" H 1405 3827 50  0000 C CNN
F 2 "" H 1400 4000 50  0001 C CNN
F 3 "" H 1400 4000 50  0001 C CNN
	1    1400 4000
	1    0    0    -1  
$EndComp
$Comp
L Connector:Conn_01x02_Male J3
U 1 1 5FE1E1F4
P 1250 2150
F 0 "J3" H 1150 2200 50  0000 C CNN
F 1 "Conn_01x02_Male" H 1050 1950 50  0000 C CNN
F 2 "Connector_PinHeader_2.54mm:PinHeader_1x02_P2.54mm_Horizontal" H 1250 2150 50  0001 C CNN
F 3 "~" H 1250 2150 50  0001 C CNN
	1    1250 2150
	1    0    0    -1  
$EndComp
$Comp
L power:GND #PWR0118
U 1 1 5FE2DFBF
P 1550 2300
F 0 "#PWR0118" H 1550 2050 50  0001 C CNN
F 1 "GND" H 1555 2127 50  0000 C CNN
F 2 "" H 1550 2300 50  0001 C CNN
F 3 "" H 1550 2300 50  0001 C CNN
	1    1550 2300
	1    0    0    -1  
$EndComp
Text GLabel 1550 2150 2    50   Input ~ 0
SN_OUT
Wire Notes Line
	5100 500  5100 3250
Wire Notes Line
	10250 3250 10250 500 
Wire Notes Line
	500  3250 10250 3250
Text Notes 700  3400 0    118  ~ 0
Power
Text Notes 650  750  0    118  ~ 0
Audio
Text Notes 5250 800  0    118  ~ 0
Logic
Wire Notes Line
	5100 3300 5100 5150
Wire Notes Line
	5100 5150 450  5150
$Comp
L Connector:AudioJack3 J2
U 1 1 5FF0E9D8
P 1150 1350
F 0 "J2" H 1132 1675 50  0000 C CNN
F 1 "AudioJack3" H 1132 1584 50  0000 C CNN
F 2 "Connector_Audio:Jack_3.5mm_CUI_SJ-3523-SMT_Horizontal" H 1150 1350 50  0001 C CNN
F 3 "~" H 1150 1350 50  0001 C CNN
	1    1150 1350
	1    0    0    -1  
$EndComp
Wire Wire Line
	1350 1350 1400 1350
Wire Wire Line
	1400 1350 1400 1450
Wire Wire Line
	1350 1450 1400 1450
Connection ~ 1400 1450
Wire Wire Line
	1400 1450 1400 1550
Wire Wire Line
	1400 1550 1500 1550
Wire Wire Line
	1450 2250 1550 2250
Wire Wire Line
	1550 2250 1550 2300
Wire Wire Line
	1450 2150 1550 2150
Wire Wire Line
	1300 3850 1400 3850
Wire Wire Line
	1400 3850 1400 3800
Wire Wire Line
	1300 3950 1400 3950
Wire Wire Line
	1400 3950 1400 4000
$EndSCHEMATC
